<?xml version='1.0' encoding='UTF-8' ?>
<svg xmlns='http://www.w3.org/2000/svg' xmlns:xlink='http://www.w3.org/1999/xlink' class='svglite' width='566.93pt' height='340.16pt' viewBox='0 0 566.93 340.16'>
<defs>
  <style type='text/css'><![CDATA[
    .svglite line, .svglite polyline, .svglite polygon, .svglite path, .svglite rect, .svglite circle {
      fill: none;
      stroke: #000000;
      stroke-linecap: round;
      stroke-linejoin: round;
      stroke-miterlimit: 10.00;
    }
  ]]></style>
</defs>
<rect width='100%' height='100%' style='stroke: none; fill: none;'/>
<defs>
  <clipPath id='cpMC4wMHw1NjYuOTN8MC4wMHwzNDAuMTY='>
    <rect x='0.00' y='0.00' width='566.93' height='340.16' />
  </clipPath>
</defs>
<g clip-path='url(#cpMC4wMHw1NjYuOTN8MC4wMHwzNDAuMTY=)'>
</g>
<defs>
  <clipPath id='cpMTQwLjUzfDU2MS40NXw1LjQ4fDI1OS42NA=='>
    <rect x='140.53' y='5.48' width='420.92' height='254.16' />
  </clipPath>
</defs>
<g clip-path='url(#cpMTQwLjUzfDU2MS40NXw1LjQ4fDI1OS42NA==)'>
<polyline points='207.49,259.64 207.49,5.48 ' style='stroke-width: 0.53; stroke: #EBEBEB; stroke-linecap: butt;' />
<polyline points='303.16,259.64 303.16,5.48 ' style='stroke-width: 0.53; stroke: #EBEBEB; stroke-linecap: butt;' />
<polyline points='398.82,259.64 398.82,5.48 ' style='stroke-width: 0.53; stroke: #EBEBEB; stroke-linecap: butt;' />
<polyline points='494.49,259.64 494.49,5.48 ' style='stroke-width: 0.53; stroke: #EBEBEB; stroke-linecap: butt;' />
<polyline points='140.53,241.04 561.45,241.04 ' style='stroke-width: 1.07; stroke: #EBEBEB; stroke-linecap: butt;' />
<polyline points='140.53,210.05 561.45,210.05 ' style='stroke-width: 1.07; stroke: #EBEBEB; stroke-linecap: butt;' />
<polyline points='140.53,179.05 561.45,179.05 ' style='stroke-width: 1.07; stroke: #EBEBEB; stroke-linecap: butt;' />
<polyline points='140.53,148.06 561.45,148.06 ' style='stroke-width: 1.07; stroke: #EBEBEB; stroke-linecap: butt;' />
<polyline points='140.53,117.06 561.45,117.06 ' style='stroke-width: 1.07; stroke: #EBEBEB; stroke-linecap: butt;' />
<polyline points='140.53,86.07 561.45,86.07 ' style='stroke-width: 1.07; stroke: #EBEBEB; stroke-linecap: butt;' />
<polyline points='140.53,55.07 561.45,55.07 ' style='stroke-width: 1.07; stroke: #EBEBEB; stroke-linecap: butt;' />
<polyline points='140.53,24.08 561.45,24.08 ' style='stroke-width: 1.07; stroke: #EBEBEB; stroke-linecap: butt;' />
<polyline points='159.66,259.64 159.66,5.48 ' style='stroke-width: 1.07; stroke: #EBEBEB; stroke-linecap: butt;' />
<polyline points='255.33,259.64 255.33,5.48 ' style='stroke-width: 1.07; stroke: #EBEBEB; stroke-linecap: butt;' />
<polyline points='350.99,259.64 350.99,5.48 ' style='stroke-width: 1.07; stroke: #EBEBEB; stroke-linecap: butt;' />
<polyline points='446.65,259.64 446.65,5.48 ' style='stroke-width: 1.07; stroke: #EBEBEB; stroke-linecap: butt;' />
<polyline points='542.32,259.64 542.32,5.48 ' style='stroke-width: 1.07; stroke: #EBEBEB; stroke-linecap: butt;' />
<rect x='159.66' y='227.09' width='17.61' height='27.90' style='stroke-width: 1.07; stroke: none; stroke-linecap: square; stroke-linejoin: miter; fill: #440154;' />
<rect x='177.28' y='227.09' width='15.85' height='27.90' style='stroke-width: 1.07; stroke: none; stroke-linecap: square; stroke-linejoin: miter; fill: #460B5D;' />
<rect x='193.13' y='227.09' width='28.18' height='27.90' style='stroke-width: 1.07; stroke: none; stroke-linecap: square; stroke-linejoin: miter; fill: #481467;' />
<rect x='221.31' y='227.09' width='29.94' height='27.90' style='stroke-width: 1.07; stroke: none; stroke-linecap: square; stroke-linejoin: miter; fill: #481D6F;' />
<rect x='251.25' y='227.09' width='18.05' height='27.90' style='stroke-width: 1.07; stroke: none; stroke-linecap: square; stroke-linejoin: miter; fill: #482576;' />
<rect x='269.31' y='227.09' width='13.21' height='27.90' style='stroke-width: 1.07; stroke: none; stroke-linecap: square; stroke-linejoin: miter; fill: #472E7C;' />
<rect x='282.52' y='227.09' width='84.55' height='27.90' style='stroke-width: 1.07; stroke: none; stroke-linecap: square; stroke-linejoin: miter; fill: #453581;' />
<rect x='367.06' y='227.09' width='2.20' height='27.90' style='stroke-width: 1.07; stroke: none; stroke-linecap: square; stroke-linejoin: miter; fill: #433E85;' />
<rect x='369.26' y='227.09' width='3.52' height='27.90' style='stroke-width: 1.07; stroke: none; stroke-linecap: square; stroke-linejoin: miter; fill: #404588;' />
<rect x='372.79' y='227.09' width='0.44' height='27.90' style='stroke-width: 1.07; stroke: none; stroke-linecap: square; stroke-linejoin: miter; fill: #3D4D8A;' />
<rect x='373.23' y='227.09' width='14.09' height='27.90' style='stroke-width: 1.07; stroke: none; stroke-linecap: square; stroke-linejoin: miter; fill: #3A538B;' />
<rect x='387.32' y='227.09' width='58.12' height='27.90' style='stroke-width: 1.07; stroke: none; stroke-linecap: square; stroke-linejoin: miter; fill: #375B8D;' />
<rect x='445.44' y='227.09' width='3.52' height='27.90' style='stroke-width: 1.07; stroke: none; stroke-linecap: square; stroke-linejoin: miter; fill: #34618D;' />
<rect x='448.97' y='227.09' width='0.44' height='27.90' style='stroke-width: 1.07; stroke: none; stroke-linecap: square; stroke-linejoin: miter; fill: #31688E;' />
<rect x='449.41' y='227.09' width='19.82' height='27.90' style='stroke-width: 1.07; stroke: none; stroke-linecap: square; stroke-linejoin: miter; fill: #2E6F8E;' />
<rect x='469.22' y='227.09' width='2.64' height='27.90' style='stroke-width: 1.07; stroke: none; stroke-linecap: square; stroke-linejoin: miter; fill: #2B748E;' />
<rect x='471.86' y='227.09' width='6.61' height='27.90' style='stroke-width: 1.07; stroke: none; stroke-linecap: square; stroke-linejoin: miter; fill: #297B8E;' />
<rect x='478.47' y='227.09' width='0.44' height='27.90' style='stroke-width: 1.07; stroke: none; stroke-linecap: square; stroke-linejoin: miter; fill: #26818E;' />
<rect x='478.91' y='227.09' width='41.39' height='27.90' style='stroke-width: 1.07; stroke: none; stroke-linecap: square; stroke-linejoin: miter; fill: #24878E;' />
<rect x='520.30' y='227.09' width='3.08' height='27.90' style='stroke-width: 1.07; stroke: none; stroke-linecap: square; stroke-linejoin: miter; fill: #228D8D;' />
<rect x='523.38' y='227.09' width='2.64' height='27.90' style='stroke-width: 1.07; stroke: none; stroke-linecap: square; stroke-linejoin: miter; fill: #20938C;' />
<rect x='526.02' y='227.09' width='0.44' height='27.90' style='stroke-width: 1.07; stroke: none; stroke-linecap: square; stroke-linejoin: miter; fill: #1F998A;' />
<rect x='526.46' y='227.09' width='0.44' height='27.90' style='stroke-width: 1.07; stroke: none; stroke-linecap: square; stroke-linejoin: miter; fill: #1FA088;' />
<rect x='526.91' y='227.09' width='11.89' height='27.90' style='stroke-width: 1.07; stroke: none; stroke-linecap: square; stroke-linejoin: miter; fill: #21A585;' />
<rect x='538.79' y='227.09' width='0.88' height='27.90' style='stroke-width: 1.07; stroke: none; stroke-linecap: square; stroke-linejoin: miter; fill: #25AC82;' />
<rect x='539.67' y='227.09' width='1.76' height='27.90' style='stroke-width: 1.07; stroke: none; stroke-linecap: square; stroke-linejoin: miter; fill: #2DB17E;' />
<rect x='541.44' y='227.09' width='0.44' height='27.90' style='stroke-width: 1.07; stroke: none; stroke-linecap: square; stroke-linejoin: miter; fill: #35B779;' />
<rect x='541.88' y='227.09' width='0.44' height='27.90' style='stroke-width: 1.07; stroke: none; stroke-linecap: square; stroke-linejoin: miter; fill: #40BC72;' />
<rect x='159.66' y='196.10' width='38.27' height='27.90' style='stroke-width: 1.07; stroke: none; stroke-linecap: square; stroke-linejoin: miter; fill: #440154;' />
<rect x='197.93' y='196.10' width='21.36' height='27.90' style='stroke-width: 1.07; stroke: none; stroke-linecap: square; stroke-linejoin: miter; fill: #460B5D;' />
<rect x='219.29' y='196.10' width='20.91' height='27.90' style='stroke-width: 1.07; stroke: none; stroke-linecap: square; stroke-linejoin: miter; fill: #481467;' />
<rect x='240.20' y='196.10' width='11.57' height='27.90' style='stroke-width: 1.07; stroke: none; stroke-linecap: square; stroke-linejoin: miter; fill: #481D6F;' />
<rect x='251.77' y='196.10' width='8.45' height='27.90' style='stroke-width: 1.07; stroke: none; stroke-linecap: square; stroke-linejoin: miter; fill: #482576;' />
<rect x='260.22' y='196.10' width='7.56' height='27.90' style='stroke-width: 1.07; stroke: none; stroke-linecap: square; stroke-linejoin: miter; fill: #472E7C;' />
<rect x='267.78' y='196.10' width='58.29' height='27.90' style='stroke-width: 1.07; stroke: none; stroke-linecap: square; stroke-linejoin: miter; fill: #453581;' />
<rect x='326.07' y='196.10' width='0.44' height='27.90' style='stroke-width: 1.07; stroke: none; stroke-linecap: square; stroke-linejoin: miter; fill: #433E85;' />
<rect x='326.52' y='196.10' width='2.22' height='27.90' style='stroke-width: 1.07; stroke: none; stroke-linecap: square; stroke-linejoin: miter; fill: #404588;' />
<rect x='328.74' y='196.10' width='0.89' height='27.90' style='stroke-width: 1.07; stroke: none; stroke-linecap: square; stroke-linejoin: miter; fill: #3D4D8A;' />
<rect x='329.63' y='196.10' width='8.45' height='27.90' style='stroke-width: 1.07; stroke: none; stroke-linecap: square; stroke-linejoin: miter; fill: #3A538B;' />
<rect x='338.09' y='196.10' width='44.05' height='27.90' style='stroke-width: 1.07; stroke: none; stroke-linecap: square; stroke-linejoin: miter; fill: #375B8D;' />
<rect x='382.14' y='196.10' width='3.56' height='27.90' style='stroke-width: 1.07; stroke: none; stroke-linecap: square; stroke-linejoin: miter; fill: #34618D;' />
<rect x='385.70' y='196.10' width='0.44' height='27.90' style='stroke-width: 1.07; stroke: none; stroke-linecap: square; stroke-linejoin: miter; fill: #31688E;' />
<rect x='386.14' y='196.10' width='22.69' height='27.90' style='stroke-width: 1.07; stroke: none; stroke-linecap: square; stroke-linejoin: miter; fill: #2E6F8E;' />
<rect x='408.83' y='196.10' width='4.45' height='27.90' style='stroke-width: 1.07; stroke: none; stroke-linecap: square; stroke-linejoin: miter; fill: #2B748E;' />
<rect x='539.65' y='196.10' width='0.44' height='27.90' style='stroke-width: 1.07; stroke: none; stroke-linecap: square; stroke-linejoin: miter; fill: #4CC26C;' />
<rect x='413.28' y='196.10' width='9.79' height='27.90' style='stroke-width: 1.07; stroke: none; stroke-linecap: square; stroke-linejoin: miter; fill: #297B8E;' />
<rect x='423.07' y='196.10' width='3.11' height='27.90' style='stroke-width: 1.07; stroke: none; stroke-linecap: square; stroke-linejoin: miter; fill: #26818E;' />
<rect x='426.19' y='196.10' width='61.85' height='27.90' style='stroke-width: 1.07; stroke: none; stroke-linecap: square; stroke-linejoin: miter; fill: #24878E;' />
<rect x='488.03' y='196.10' width='5.78' height='27.90' style='stroke-width: 1.07; stroke: none; stroke-linecap: square; stroke-linejoin: miter; fill: #228D8D;' />
<rect x='540.09' y='196.10' width='0.89' height='27.90' style='stroke-width: 1.07; stroke: none; stroke-linecap: square; stroke-linejoin: miter; fill: #59C864;' />
<rect x='493.82' y='196.10' width='4.00' height='27.90' style='stroke-width: 1.07; stroke: none; stroke-linecap: square; stroke-linejoin: miter; fill: #20938C;' />
<rect x='540.98' y='196.10' width='0.44' height='27.90' style='stroke-width: 1.07; stroke: none; stroke-linecap: square; stroke-linejoin: miter; fill: #67CC5C;' />
<rect x='497.82' y='196.10' width='0.89' height='27.90' style='stroke-width: 1.07; stroke: none; stroke-linecap: square; stroke-linejoin: miter; fill: #1F998A;' />
<rect x='498.71' y='196.10' width='0.89' height='27.90' style='stroke-width: 1.07; stroke: none; stroke-linecap: square; stroke-linejoin: miter; fill: #1FA088;' />
<rect x='541.43' y='196.10' width='0.44' height='27.90' style='stroke-width: 1.07; stroke: none; stroke-linecap: square; stroke-linejoin: miter; fill: #76D153;' />
<rect x='499.60' y='196.10' width='29.81' height='27.90' style='stroke-width: 1.07; stroke: none; stroke-linecap: square; stroke-linejoin: miter; fill: #21A585;' />
<rect x='529.41' y='196.10' width='7.12' height='27.90' style='stroke-width: 1.07; stroke: none; stroke-linecap: square; stroke-linejoin: miter; fill: #2DB17E;' />
<rect x='541.87' y='196.10' width='0.44' height='27.90' style='stroke-width: 1.07; stroke: none; stroke-linecap: square; stroke-linejoin: miter; fill: #87D549;' />
<rect x='536.53' y='196.10' width='1.78' height='27.90' style='stroke-width: 1.07; stroke: none; stroke-linecap: square; stroke-linejoin: miter; fill: #35B779;' />
<rect x='538.31' y='196.10' width='1.33' height='27.90' style='stroke-width: 1.07; stroke: none; stroke-linecap: square; stroke-linejoin: miter; fill: #40BC72;' />
<rect x='159.66' y='165.10' width='80.00' height='27.90' style='stroke-width: 1.07; stroke: none; stroke-linecap: square; stroke-linejoin: miter; fill: #440154;' />
<rect x='239.66' y='165.10' width='34.67' height='27.90' style='stroke-width: 1.07; stroke: none; stroke-linecap: square; stroke-linejoin: miter; fill: #460B5D;' />
<rect x='274.33' y='165.10' width='33.78' height='27.90' style='stroke-width: 1.07; stroke: none; stroke-linecap: square; stroke-linejoin: miter; fill: #481467;' />
<rect x='308.10' y='165.10' width='27.55' height='27.90' style='stroke-width: 1.07; stroke: none; stroke-linecap: square; stroke-linejoin: miter; fill: #481D6F;' />
<rect x='335.66' y='165.10' width='13.78' height='27.90' style='stroke-width: 1.07; stroke: none; stroke-linecap: square; stroke-linejoin: miter; fill: #482576;' />
<rect x='349.43' y='165.10' width='13.78' height='27.90' style='stroke-width: 1.07; stroke: none; stroke-linecap: square; stroke-linejoin: miter; fill: #472E7C;' />
<rect x='363.21' y='165.10' width='71.11' height='27.90' style='stroke-width: 1.07; stroke: none; stroke-linecap: square; stroke-linejoin: miter; fill: #453581;' />
<rect x='434.32' y='165.10' width='1.78' height='27.90' style='stroke-width: 1.07; stroke: none; stroke-linecap: square; stroke-linejoin: miter; fill: #433E85;' />
<rect x='436.10' y='165.10' width='3.11' height='27.90' style='stroke-width: 1.07; stroke: none; stroke-linecap: square; stroke-linejoin: miter; fill: #404588;' />
<rect x='439.21' y='165.10' width='0.44' height='27.90' style='stroke-width: 1.07; stroke: none; stroke-linecap: square; stroke-linejoin: miter; fill: #3D4D8A;' />
<rect x='439.65' y='165.10' width='6.22' height='27.90' style='stroke-width: 1.07; stroke: none; stroke-linecap: square; stroke-linejoin: miter; fill: #3A538B;' />
<rect x='541.87' y='165.10' width='0.44' height='27.90' style='stroke-width: 1.07; stroke: none; stroke-linecap: square; stroke-linejoin: miter; fill: #97D83F;' />
<rect x='445.88' y='165.10' width='37.78' height='27.90' style='stroke-width: 1.07; stroke: none; stroke-linecap: square; stroke-linejoin: miter; fill: #375B8D;' />
<rect x='483.65' y='165.10' width='1.33' height='27.90' style='stroke-width: 1.07; stroke: none; stroke-linecap: square; stroke-linejoin: miter; fill: #34618D;' />
<rect x='484.99' y='165.10' width='0.44' height='27.90' style='stroke-width: 1.07; stroke: none; stroke-linecap: square; stroke-linejoin: miter; fill: #31688E;' />
<rect x='485.43' y='165.10' width='10.67' height='27.90' style='stroke-width: 1.07; stroke: none; stroke-linecap: square; stroke-linejoin: miter; fill: #2E6F8E;' />
<rect x='496.10' y='165.10' width='1.33' height='27.90' style='stroke-width: 1.07; stroke: none; stroke-linecap: square; stroke-linejoin: miter; fill: #2B748E;' />
<rect x='497.43' y='165.10' width='4.44' height='27.90' style='stroke-width: 1.07; stroke: none; stroke-linecap: square; stroke-linejoin: miter; fill: #297B8E;' />
<rect x='501.87' y='165.10' width='1.33' height='27.90' style='stroke-width: 1.07; stroke: none; stroke-linecap: square; stroke-linejoin: miter; fill: #26818E;' />
<rect x='503.21' y='165.10' width='26.22' height='27.90' style='stroke-width: 1.07; stroke: none; stroke-linecap: square; stroke-linejoin: miter; fill: #24878E;' />
<rect x='529.43' y='165.10' width='4.00' height='27.90' style='stroke-width: 1.07; stroke: none; stroke-linecap: square; stroke-linejoin: miter; fill: #228D8D;' />
<rect x='533.43' y='165.10' width='0.89' height='27.90' style='stroke-width: 1.07; stroke: none; stroke-linecap: square; stroke-linejoin: miter; fill: #20938C;' />
<rect x='534.32' y='165.10' width='0.89' height='27.90' style='stroke-width: 1.07; stroke: none; stroke-linecap: square; stroke-linejoin: miter; fill: #1F998A;' />
<rect x='535.21' y='165.10' width='0.44' height='27.90' style='stroke-width: 1.07; stroke: none; stroke-linecap: square; stroke-linejoin: miter; fill: #1FA088;' />
<rect x='535.65' y='165.10' width='5.33' height='27.90' style='stroke-width: 1.07; stroke: none; stroke-linecap: square; stroke-linejoin: miter; fill: #21A585;' />
<rect x='540.98' y='165.10' width='0.44' height='27.90' style='stroke-width: 1.07; stroke: none; stroke-linecap: square; stroke-linejoin: miter; fill: #25AC82;' />
<rect x='541.43' y='165.10' width='0.44' height='27.90' style='stroke-width: 1.07; stroke: none; stroke-linecap: square; stroke-linejoin: miter; fill: #35B779;' />
<rect x='159.66' y='134.11' width='207.14' height='27.90' style='stroke-width: 1.07; stroke: none; stroke-linecap: square; stroke-linejoin: miter; fill: #440154;' />
<rect x='366.80' y='134.11' width='62.81' height='27.90' style='stroke-width: 1.07; stroke: none; stroke-linecap: square; stroke-linejoin: miter; fill: #460B5D;' />
<rect x='429.61' y='134.11' width='41.43' height='27.90' style='stroke-width: 1.07; stroke: none; stroke-linecap: square; stroke-linejoin: miter; fill: #481467;' />
<rect x='471.04' y='134.11' width='21.83' height='27.90' style='stroke-width: 1.07; stroke: none; stroke-linecap: square; stroke-linejoin: miter; fill: #481D6F;' />
<rect x='492.87' y='134.11' width='6.68' height='27.90' style='stroke-width: 1.07; stroke: none; stroke-linecap: square; stroke-linejoin: miter; fill: #482576;' />
<rect x='499.55' y='134.11' width='4.45' height='27.90' style='stroke-width: 1.07; stroke: none; stroke-linecap: square; stroke-linejoin: miter; fill: #472E7C;' />
<rect x='504.01' y='134.11' width='23.61' height='27.90' style='stroke-width: 1.07; stroke: none; stroke-linecap: square; stroke-linejoin: miter; fill: #453581;' />
<rect x='527.62' y='134.11' width='0.45' height='27.90' style='stroke-width: 1.07; stroke: none; stroke-linecap: square; stroke-linejoin: miter; fill: #433E85;' />
<rect x='528.06' y='134.11' width='1.34' height='27.90' style='stroke-width: 1.07; stroke: none; stroke-linecap: square; stroke-linejoin: miter; fill: #404588;' />
<rect x='529.40' y='134.11' width='1.78' height='27.90' style='stroke-width: 1.07; stroke: none; stroke-linecap: square; stroke-linejoin: miter; fill: #3A538B;' />
<rect x='531.18' y='134.11' width='6.68' height='27.90' style='stroke-width: 1.07; stroke: none; stroke-linecap: square; stroke-linejoin: miter; fill: #375B8D;' />
<rect x='537.86' y='134.11' width='0.45' height='27.90' style='stroke-width: 1.07; stroke: none; stroke-linecap: square; stroke-linejoin: miter; fill: #34618D;' />
<rect x='538.31' y='134.11' width='0.45' height='27.90' style='stroke-width: 1.07; stroke: none; stroke-linecap: square; stroke-linejoin: miter; fill: #2E6F8E;' />
<rect x='538.75' y='134.11' width='0.45' height='27.90' style='stroke-width: 1.07; stroke: none; stroke-linecap: square; stroke-linejoin: miter; fill: #2B748E;' />
<rect x='539.20' y='134.11' width='1.34' height='27.90' style='stroke-width: 1.07; stroke: none; stroke-linecap: square; stroke-linejoin: miter; fill: #24878E;' />
<rect x='540.54' y='134.11' width='0.45' height='27.90' style='stroke-width: 1.07; stroke: none; stroke-linecap: square; stroke-linejoin: miter; fill: #228D8D;' />
<rect x='541.43' y='134.11' width='0.45' height='27.90' style='stroke-width: 1.07; stroke: none; stroke-linecap: square; stroke-linejoin: miter; fill: #A9DB33;' />
<rect x='541.87' y='134.11' width='0.45' height='27.90' style='stroke-width: 1.07; stroke: none; stroke-linecap: square; stroke-linejoin: miter; fill: #BADE28;' />
<rect x='540.98' y='134.11' width='0.45' height='27.90' style='stroke-width: 1.07; stroke: none; stroke-linecap: square; stroke-linejoin: miter; fill: #21A585;' />
<rect x='159.66' y='103.11' width='116.64' height='27.90' style='stroke-width: 1.07; stroke: none; stroke-linecap: square; stroke-linejoin: miter; fill: #440154;' />
<rect x='276.30' y='103.11' width='84.79' height='27.90' style='stroke-width: 1.07; stroke: none; stroke-linecap: square; stroke-linejoin: miter; fill: #460B5D;' />
<rect x='361.08' y='103.11' width='64.60' height='27.90' style='stroke-width: 1.07; stroke: none; stroke-linecap: square; stroke-linejoin: miter; fill: #481467;' />
<rect x='425.68' y='103.11' width='27.36' height='27.90' style='stroke-width: 1.07; stroke: none; stroke-linecap: square; stroke-linejoin: miter; fill: #481D6F;' />
<rect x='453.05' y='103.11' width='18.39' height='27.90' style='stroke-width: 1.07; stroke: none; stroke-linecap: square; stroke-linejoin: miter; fill: #482576;' />
<rect x='471.44' y='103.11' width='12.56' height='27.90' style='stroke-width: 1.07; stroke: none; stroke-linecap: square; stroke-linejoin: miter; fill: #472E7C;' />
<rect x='484.00' y='103.11' width='33.20' height='27.90' style='stroke-width: 1.07; stroke: none; stroke-linecap: square; stroke-linejoin: miter; fill: #453581;' />
<rect x='517.20' y='103.11' width='1.35' height='27.90' style='stroke-width: 1.07; stroke: none; stroke-linecap: square; stroke-linejoin: miter; fill: #433E85;' />
<rect x='518.54' y='103.11' width='1.79' height='27.90' style='stroke-width: 1.07; stroke: none; stroke-linecap: square; stroke-linejoin: miter; fill: #404588;' />
<rect x='520.34' y='103.11' width='0.90' height='27.90' style='stroke-width: 1.07; stroke: none; stroke-linecap: square; stroke-linejoin: miter; fill: #3D4D8A;' />
<rect x='521.23' y='103.11' width='2.69' height='27.90' style='stroke-width: 1.07; stroke: none; stroke-linecap: square; stroke-linejoin: miter; fill: #3A538B;' />
<rect x='523.92' y='103.11' width='10.32' height='27.90' style='stroke-width: 1.07; stroke: none; stroke-linecap: square; stroke-linejoin: miter; fill: #375B8D;' />
<rect x='534.24' y='103.11' width='1.35' height='27.90' style='stroke-width: 1.07; stroke: none; stroke-linecap: square; stroke-linejoin: miter; fill: #34618D;' />
<rect x='535.59' y='103.11' width='3.14' height='27.90' style='stroke-width: 1.07; stroke: none; stroke-linecap: square; stroke-linejoin: miter; fill: #2E6F8E;' />
<rect x='538.73' y='103.11' width='0.45' height='27.90' style='stroke-width: 1.07; stroke: none; stroke-linecap: square; stroke-linejoin: miter; fill: #297B8E;' />
<rect x='539.18' y='103.11' width='1.79' height='27.90' style='stroke-width: 1.07; stroke: none; stroke-linecap: square; stroke-linejoin: miter; fill: #24878E;' />
<rect x='541.42' y='103.11' width='0.45' height='27.90' style='stroke-width: 1.07; stroke: none; stroke-linecap: square; stroke-linejoin: miter; fill: #CBE11E;' />
<rect x='541.87' y='103.11' width='0.45' height='27.90' style='stroke-width: 1.07; stroke: none; stroke-linecap: square; stroke-linejoin: miter; fill: #DDE318;' />
<rect x='540.97' y='103.11' width='0.45' height='27.90' style='stroke-width: 1.07; stroke: none; stroke-linecap: square; stroke-linejoin: miter; fill: #21A585;' />
<rect x='159.66' y='72.12' width='169.52' height='27.90' style='stroke-width: 1.07; stroke: none; stroke-linecap: square; stroke-linejoin: miter; fill: #440154;' />
<rect x='541.87' y='72.12' width='0.45' height='27.90' style='stroke-width: 1.07; stroke: none; stroke-linecap: square; stroke-linejoin: miter; fill: #EDE51B;' />
<rect x='329.18' y='72.12' width='93.08' height='27.90' style='stroke-width: 1.07; stroke: none; stroke-linecap: square; stroke-linejoin: miter; fill: #460B5D;' />
<rect x='422.26' y='72.12' width='53.96' height='27.90' style='stroke-width: 1.07; stroke: none; stroke-linecap: square; stroke-linejoin: miter; fill: #481467;' />
<rect x='476.22' y='72.12' width='23.83' height='27.90' style='stroke-width: 1.07; stroke: none; stroke-linecap: square; stroke-linejoin: miter; fill: #481D6F;' />
<rect x='500.05' y='72.12' width='10.34' height='27.90' style='stroke-width: 1.07; stroke: none; stroke-linecap: square; stroke-linejoin: miter; fill: #482576;' />
<rect x='510.39' y='72.12' width='6.74' height='27.90' style='stroke-width: 1.07; stroke: none; stroke-linecap: square; stroke-linejoin: miter; fill: #472E7C;' />
<rect x='517.14' y='72.12' width='17.09' height='27.90' style='stroke-width: 1.07; stroke: none; stroke-linecap: square; stroke-linejoin: miter; fill: #453581;' />
<rect x='534.22' y='72.12' width='0.45' height='27.90' style='stroke-width: 1.07; stroke: none; stroke-linecap: square; stroke-linejoin: miter; fill: #433E85;' />
<rect x='534.67' y='72.12' width='0.45' height='27.90' style='stroke-width: 1.07; stroke: none; stroke-linecap: square; stroke-linejoin: miter; fill: #404588;' />
<rect x='535.12' y='72.12' width='2.25' height='27.90' style='stroke-width: 1.07; stroke: none; stroke-linecap: square; stroke-linejoin: miter; fill: #3A538B;' />
<rect x='537.37' y='72.12' width='3.15' height='27.90' style='stroke-width: 1.07; stroke: none; stroke-linecap: square; stroke-linejoin: miter; fill: #375B8D;' />
<rect x='540.52' y='72.12' width='0.45' height='27.90' style='stroke-width: 1.07; stroke: none; stroke-linecap: square; stroke-linejoin: miter; fill: #34618D;' />
<rect x='540.97' y='72.12' width='0.45' height='27.90' style='stroke-width: 1.07; stroke: none; stroke-linecap: square; stroke-linejoin: miter; fill: #2E6F8E;' />
<rect x='541.42' y='72.12' width='0.45' height='27.90' style='stroke-width: 1.07; stroke: none; stroke-linecap: square; stroke-linejoin: miter; fill: #297B8E;' />
<rect x='159.66' y='41.12' width='140.34' height='27.90' style='stroke-width: 1.07; stroke: none; stroke-linecap: square; stroke-linejoin: miter; fill: #440154;' />
<rect x='300.00' y='41.12' width='95.21' height='27.90' style='stroke-width: 1.07; stroke: none; stroke-linecap: square; stroke-linejoin: miter; fill: #460B5D;' />
<rect x='395.21' y='41.12' width='64.53' height='27.90' style='stroke-width: 1.07; stroke: none; stroke-linecap: square; stroke-linejoin: miter; fill: #481467;' />
<rect x='459.74' y='41.12' width='26.62' height='27.90' style='stroke-width: 1.07; stroke: none; stroke-linecap: square; stroke-linejoin: miter; fill: #481D6F;' />
<rect x='486.36' y='41.12' width='13.54' height='27.90' style='stroke-width: 1.07; stroke: none; stroke-linecap: square; stroke-linejoin: miter; fill: #482576;' />
<rect x='499.90' y='41.12' width='6.77' height='27.90' style='stroke-width: 1.07; stroke: none; stroke-linecap: square; stroke-linejoin: miter; fill: #472E7C;' />
<rect x='506.67' y='41.12' width='22.56' height='27.90' style='stroke-width: 1.07; stroke: none; stroke-linecap: square; stroke-linejoin: miter; fill: #453581;' />
<rect x='529.23' y='41.12' width='0.45' height='27.90' style='stroke-width: 1.07; stroke: none; stroke-linecap: square; stroke-linejoin: miter; fill: #433E85;' />
<rect x='529.68' y='41.12' width='0.45' height='27.90' style='stroke-width: 1.07; stroke: none; stroke-linecap: square; stroke-linejoin: miter; fill: #404588;' />
<rect x='530.13' y='41.12' width='0.45' height='27.90' style='stroke-width: 1.07; stroke: none; stroke-linecap: square; stroke-linejoin: miter; fill: #3A538B;' />
<rect x='530.58' y='41.12' width='7.67' height='27.90' style='stroke-width: 1.07; stroke: none; stroke-linecap: square; stroke-linejoin: miter; fill: #375B8D;' />
<rect x='541.87' y='41.12' width='0.45' height='27.90' style='stroke-width: 1.07; stroke: none; stroke-linecap: square; stroke-linejoin: miter; fill: #FDE725;' />
<rect x='538.26' y='41.12' width='1.80' height='27.90' style='stroke-width: 1.07; stroke: none; stroke-linecap: square; stroke-linejoin: miter; fill: #2E6F8E;' />
<rect x='540.06' y='41.12' width='0.45' height='27.90' style='stroke-width: 1.07; stroke: none; stroke-linecap: square; stroke-linejoin: miter; fill: #297B8E;' />
<rect x='540.51' y='41.12' width='0.45' height='27.90' style='stroke-width: 1.07; stroke: none; stroke-linecap: square; stroke-linejoin: miter; fill: #20938C;' />
<rect x='540.96' y='41.12' width='0.45' height='27.90' style='stroke-width: 1.07; stroke: none; stroke-linecap: square; stroke-linejoin: miter; fill: #21A585;' />
<rect x='541.41' y='41.12' width='0.45' height='27.90' style='stroke-width: 1.07; stroke: none; stroke-linecap: square; stroke-linejoin: miter; fill: #35B779;' />
<rect x='159.66' y='10.13' width='62.80' height='27.90' style='stroke-width: 1.07; stroke: none; stroke-linecap: square; stroke-linejoin: miter; fill: #440154;' />
<rect x='222.47' y='10.13' width='87.48' height='27.90' style='stroke-width: 1.07; stroke: none; stroke-linecap: square; stroke-linejoin: miter; fill: #460B5D;' />
<rect x='309.94' y='10.13' width='72.22' height='27.90' style='stroke-width: 1.07; stroke: none; stroke-linecap: square; stroke-linejoin: miter; fill: #481467;' />
<rect x='382.17' y='10.13' width='45.76' height='27.90' style='stroke-width: 1.07; stroke: none; stroke-linecap: square; stroke-linejoin: miter; fill: #481D6F;' />
<rect x='427.92' y='10.13' width='30.50' height='27.90' style='stroke-width: 1.07; stroke: none; stroke-linecap: square; stroke-linejoin: miter; fill: #482576;' />
<rect x='458.43' y='10.13' width='25.12' height='27.90' style='stroke-width: 1.07; stroke: none; stroke-linecap: square; stroke-linejoin: miter; fill: #472E7C;' />
<rect x='483.55' y='10.13' width='30.50' height='27.90' style='stroke-width: 1.07; stroke: none; stroke-linecap: square; stroke-linejoin: miter; fill: #453581;' />
<rect x='514.06' y='10.13' width='4.93' height='27.90' style='stroke-width: 1.07; stroke: none; stroke-linecap: square; stroke-linejoin: miter; fill: #433E85;' />
<rect x='518.99' y='10.13' width='2.24' height='27.90' style='stroke-width: 1.07; stroke: none; stroke-linecap: square; stroke-linejoin: miter; fill: #404588;' />
<rect x='521.23' y='10.13' width='0.90' height='27.90' style='stroke-width: 1.07; stroke: none; stroke-linecap: square; stroke-linejoin: miter; fill: #3D4D8A;' />
<rect x='522.13' y='10.13' width='3.59' height='27.90' style='stroke-width: 1.07; stroke: none; stroke-linecap: square; stroke-linejoin: miter; fill: #3A538B;' />
<rect x='541.42' y='10.13' width='0.90' height='27.90' style='stroke-width: 1.07; stroke: none; stroke-linecap: square; stroke-linejoin: miter; fill: #97D83F;' />
<rect x='525.72' y='10.13' width='8.07' height='27.90' style='stroke-width: 1.07; stroke: none; stroke-linecap: square; stroke-linejoin: miter; fill: #375B8D;' />
<rect x='533.79' y='10.13' width='4.49' height='27.90' style='stroke-width: 1.07; stroke: none; stroke-linecap: square; stroke-linejoin: miter; fill: #2E6F8E;' />
<rect x='538.28' y='10.13' width='0.45' height='27.90' style='stroke-width: 1.07; stroke: none; stroke-linecap: square; stroke-linejoin: miter; fill: #2B748E;' />
<rect x='538.73' y='10.13' width='0.90' height='27.90' style='stroke-width: 1.07; stroke: none; stroke-linecap: square; stroke-linejoin: miter; fill: #297B8E;' />
<rect x='539.63' y='10.13' width='0.45' height='27.90' style='stroke-width: 1.07; stroke: none; stroke-linecap: square; stroke-linejoin: miter; fill: #228D8D;' />
<rect x='540.07' y='10.13' width='0.45' height='27.90' style='stroke-width: 1.07; stroke: none; stroke-linecap: square; stroke-linejoin: miter; fill: #2DB17E;' />
<rect x='540.52' y='10.13' width='0.90' height='27.90' style='stroke-width: 1.07; stroke: none; stroke-linecap: square; stroke-linejoin: miter; fill: #40BC72;' />
<text x='168.47' y='238.98' text-anchor='middle' style='font-size: 5.69px; fill: #FFFFFF; font-family: Arial;' textLength='6.32px' lengthAdjust='spacingAndGlyphs'>40</text>
<text x='168.47' y='247.18' text-anchor='middle' style='font-size: 5.69px; fill: #FFFFFF; font-family: Arial;' textLength='12.00px' lengthAdjust='spacingAndGlyphs'>(5%)</text>
<text x='185.20' y='238.98' text-anchor='middle' style='font-size: 5.69px; fill: #FFFFFF; font-family: Arial;' textLength='6.32px' lengthAdjust='spacingAndGlyphs'>36</text>
<text x='185.20' y='247.18' text-anchor='middle' style='font-size: 5.69px; fill: #FFFFFF; font-family: Arial;' textLength='12.00px' lengthAdjust='spacingAndGlyphs'>(4%)</text>
<text x='207.22' y='238.98' text-anchor='middle' style='font-size: 5.69px; fill: #FFFFFF; font-family: Arial;' textLength='6.32px' lengthAdjust='spacingAndGlyphs'>64</text>
<text x='207.22' y='247.18' text-anchor='middle' style='font-size: 5.69px; fill: #FFFFFF; font-family: Arial;' textLength='12.00px' lengthAdjust='spacingAndGlyphs'>(7%)</text>
<text x='236.28' y='238.98' text-anchor='middle' style='font-size: 5.69px; fill: #FFFFFF; font-family: Arial;' textLength='6.32px' lengthAdjust='spacingAndGlyphs'>68</text>
<text x='236.28' y='247.18' text-anchor='middle' style='font-size: 5.69px; fill: #FFFFFF; font-family: Arial;' textLength='12.00px' lengthAdjust='spacingAndGlyphs'>(8%)</text>
<text x='260.28' y='238.98' text-anchor='middle' style='font-size: 5.69px; fill: #FFFFFF; font-family: Arial;' textLength='6.32px' lengthAdjust='spacingAndGlyphs'>41</text>
<text x='260.28' y='247.18' text-anchor='middle' style='font-size: 5.69px; fill: #FFFFFF; font-family: Arial;' textLength='12.00px' lengthAdjust='spacingAndGlyphs'>(5%)</text>
<text x='275.91' y='238.98' text-anchor='middle' style='font-size: 5.69px; fill: #FFFFFF; font-family: Arial;' textLength='6.32px' lengthAdjust='spacingAndGlyphs'>30</text>
<text x='275.91' y='247.18' text-anchor='middle' style='font-size: 5.69px; fill: #FFFFFF; font-family: Arial;' textLength='12.00px' lengthAdjust='spacingAndGlyphs'>(3%)</text>
<text x='324.79' y='238.98' text-anchor='middle' style='font-size: 5.69px; fill: #FFFFFF; font-family: Arial;' textLength='9.48px' lengthAdjust='spacingAndGlyphs'>192</text>
<text x='324.79' y='247.18' text-anchor='middle' style='font-size: 5.69px; fill: #FFFFFF; font-family: Arial;' textLength='15.16px' lengthAdjust='spacingAndGlyphs'>(22%)</text>
<text x='368.16' y='238.98' text-anchor='middle' style='font-size: 5.69px; fill: #FFFFFF; font-family: Arial;' textLength='3.16px' lengthAdjust='spacingAndGlyphs'>5</text>
<text x='368.16' y='247.18' text-anchor='middle' style='font-size: 5.69px; fill: #FFFFFF; font-family: Arial;' textLength='12.00px' lengthAdjust='spacingAndGlyphs'>(1%)</text>
<text x='371.02' y='238.98' text-anchor='middle' style='font-size: 5.69px; fill: #FFFFFF; font-family: Arial;' textLength='3.16px' lengthAdjust='spacingAndGlyphs'>8</text>
<text x='371.02' y='247.18' text-anchor='middle' style='font-size: 5.69px; fill: #FFFFFF; font-family: Arial;' textLength='12.00px' lengthAdjust='spacingAndGlyphs'>(1%)</text>
<text x='380.27' y='238.98' text-anchor='middle' style='font-size: 5.69px; fill: #FFFFFF; font-family: Arial;' textLength='6.32px' lengthAdjust='spacingAndGlyphs'>32</text>
<text x='380.27' y='247.18' text-anchor='middle' style='font-size: 5.69px; fill: #FFFFFF; font-family: Arial;' textLength='12.00px' lengthAdjust='spacingAndGlyphs'>(4%)</text>
<text x='416.38' y='238.98' text-anchor='middle' style='font-size: 5.69px; fill: #FFFFFF; font-family: Arial;' textLength='9.48px' lengthAdjust='spacingAndGlyphs'>132</text>
<text x='416.38' y='247.18' text-anchor='middle' style='font-size: 5.69px; fill: #FFFFFF; font-family: Arial;' textLength='15.16px' lengthAdjust='spacingAndGlyphs'>(15%)</text>
<text x='447.20' y='238.98' text-anchor='middle' style='font-size: 5.69px; fill: #FFFFFF; font-family: Arial;' textLength='3.16px' lengthAdjust='spacingAndGlyphs'>8</text>
<text x='447.20' y='247.18' text-anchor='middle' style='font-size: 5.69px; fill: #FFFFFF; font-family: Arial;' textLength='12.00px' lengthAdjust='spacingAndGlyphs'>(1%)</text>
<text x='459.31' y='238.98' text-anchor='middle' style='font-size: 5.69px; fill: #FFFFFF; font-family: Arial;' textLength='6.32px' lengthAdjust='spacingAndGlyphs'>45</text>
<text x='459.31' y='247.18' text-anchor='middle' style='font-size: 5.69px; fill: #FFFFFF; font-family: Arial;' textLength='12.00px' lengthAdjust='spacingAndGlyphs'>(5%)</text>
<text x='470.54' y='238.98' text-anchor='middle' style='font-size: 5.69px; fill: #FFFFFF; font-family: Arial;' textLength='3.16px' lengthAdjust='spacingAndGlyphs'>6</text>
<text x='470.54' y='247.18' text-anchor='middle' style='font-size: 5.69px; fill: #FFFFFF; font-family: Arial;' textLength='12.00px' lengthAdjust='spacingAndGlyphs'>(1%)</text>
<text x='475.17' y='238.98' text-anchor='middle' style='font-size: 5.69px; fill: #FFFFFF; font-family: Arial;' textLength='6.32px' lengthAdjust='spacingAndGlyphs'>15</text>
<text x='475.17' y='247.18' text-anchor='middle' style='font-size: 5.69px; fill: #FFFFFF; font-family: Arial;' textLength='12.00px' lengthAdjust='spacingAndGlyphs'>(2%)</text>
<text x='499.60' y='238.98' text-anchor='middle' style='font-size: 5.69px; fill: #FFFFFF; font-family: Arial;' textLength='6.32px' lengthAdjust='spacingAndGlyphs'>94</text>
<text x='499.60' y='247.18' text-anchor='middle' style='font-size: 5.69px; fill: #FFFFFF; font-family: Arial;' textLength='14.74px' lengthAdjust='spacingAndGlyphs'>(11%)</text>
<text x='521.84' y='238.98' text-anchor='middle' style='font-size: 5.69px; fill: #FFFFFF; font-family: Arial;' textLength='3.16px' lengthAdjust='spacingAndGlyphs'>7</text>
<text x='521.84' y='247.18' text-anchor='middle' style='font-size: 5.69px; fill: #FFFFFF; font-family: Arial;' textLength='12.00px' lengthAdjust='spacingAndGlyphs'>(1%)</text>
<text x='524.70' y='238.98' text-anchor='middle' style='font-size: 5.69px; fill: #FFFFFF; font-family: Arial;' textLength='3.16px' lengthAdjust='spacingAndGlyphs'>6</text>
<text x='524.70' y='247.18' text-anchor='middle' style='font-size: 5.69px; fill: #FFFFFF; font-family: Arial;' textLength='12.00px' lengthAdjust='spacingAndGlyphs'>(1%)</text>
<text x='532.85' y='238.98' text-anchor='middle' style='font-size: 5.69px; fill: #FFFFFF; font-family: Arial;' textLength='6.32px' lengthAdjust='spacingAndGlyphs'>27</text>
<text x='532.85' y='247.18' text-anchor='middle' style='font-size: 5.69px; fill: #FFFFFF; font-family: Arial;' textLength='12.00px' lengthAdjust='spacingAndGlyphs'>(3%)</text>
<text x='178.79' y='207.99' text-anchor='middle' style='font-size: 5.69px; fill: #FFFFFF; font-family: Arial;' textLength='6.32px' lengthAdjust='spacingAndGlyphs'>86</text>
<text x='178.79' y='216.18' text-anchor='middle' style='font-size: 5.69px; fill: #FFFFFF; font-family: Arial;' textLength='15.16px' lengthAdjust='spacingAndGlyphs'>(10%)</text>
<text x='208.61' y='207.99' text-anchor='middle' style='font-size: 5.69px; fill: #FFFFFF; font-family: Arial;' textLength='6.32px' lengthAdjust='spacingAndGlyphs'>48</text>
<text x='208.61' y='216.18' text-anchor='middle' style='font-size: 5.69px; fill: #FFFFFF; font-family: Arial;' textLength='12.00px' lengthAdjust='spacingAndGlyphs'>(6%)</text>
<text x='229.74' y='207.99' text-anchor='middle' style='font-size: 5.69px; fill: #FFFFFF; font-family: Arial;' textLength='6.32px' lengthAdjust='spacingAndGlyphs'>47</text>
<text x='229.74' y='216.18' text-anchor='middle' style='font-size: 5.69px; fill: #FFFFFF; font-family: Arial;' textLength='12.00px' lengthAdjust='spacingAndGlyphs'>(5%)</text>
<text x='245.98' y='207.99' text-anchor='middle' style='font-size: 5.69px; fill: #FFFFFF; font-family: Arial;' textLength='6.32px' lengthAdjust='spacingAndGlyphs'>26</text>
<text x='245.98' y='216.18' text-anchor='middle' style='font-size: 5.69px; fill: #FFFFFF; font-family: Arial;' textLength='12.00px' lengthAdjust='spacingAndGlyphs'>(3%)</text>
<text x='255.99' y='207.99' text-anchor='middle' style='font-size: 5.69px; fill: #FFFFFF; font-family: Arial;' textLength='6.32px' lengthAdjust='spacingAndGlyphs'>19</text>
<text x='255.99' y='216.18' text-anchor='middle' style='font-size: 5.69px; fill: #FFFFFF; font-family: Arial;' textLength='12.00px' lengthAdjust='spacingAndGlyphs'>(2%)</text>
<text x='264.00' y='207.99' text-anchor='middle' style='font-size: 5.69px; fill: #FFFFFF; font-family: Arial;' textLength='6.32px' lengthAdjust='spacingAndGlyphs'>17</text>
<text x='264.00' y='216.18' text-anchor='middle' style='font-size: 5.69px; fill: #FFFFFF; font-family: Arial;' textLength='12.00px' lengthAdjust='spacingAndGlyphs'>(2%)</text>
<text x='296.93' y='207.99' text-anchor='middle' style='font-size: 5.69px; fill: #FFFFFF; font-family: Arial;' textLength='9.48px' lengthAdjust='spacingAndGlyphs'>131</text>
<text x='296.93' y='216.18' text-anchor='middle' style='font-size: 5.69px; fill: #FFFFFF; font-family: Arial;' textLength='15.16px' lengthAdjust='spacingAndGlyphs'>(15%)</text>
<text x='327.63' y='207.99' text-anchor='middle' style='font-size: 5.69px; fill: #FFFFFF; font-family: Arial;' textLength='3.16px' lengthAdjust='spacingAndGlyphs'>5</text>
<text x='327.63' y='216.18' text-anchor='middle' style='font-size: 5.69px; fill: #FFFFFF; font-family: Arial;' textLength='12.00px' lengthAdjust='spacingAndGlyphs'>(1%)</text>
<text x='333.86' y='207.99' text-anchor='middle' style='font-size: 5.69px; fill: #FFFFFF; font-family: Arial;' textLength='6.32px' lengthAdjust='spacingAndGlyphs'>19</text>
<text x='333.86' y='216.18' text-anchor='middle' style='font-size: 5.69px; fill: #FFFFFF; font-family: Arial;' textLength='12.00px' lengthAdjust='spacingAndGlyphs'>(2%)</text>
<text x='360.11' y='207.99' text-anchor='middle' style='font-size: 5.69px; fill: #FFFFFF; font-family: Arial;' textLength='6.32px' lengthAdjust='spacingAndGlyphs'>99</text>
<text x='360.11' y='216.18' text-anchor='middle' style='font-size: 5.69px; fill: #FFFFFF; font-family: Arial;' textLength='15.16px' lengthAdjust='spacingAndGlyphs'>(12%)</text>
<text x='383.92' y='207.99' text-anchor='middle' style='font-size: 5.69px; fill: #FFFFFF; font-family: Arial;' textLength='3.16px' lengthAdjust='spacingAndGlyphs'>8</text>
<text x='383.92' y='216.18' text-anchor='middle' style='font-size: 5.69px; fill: #FFFFFF; font-family: Arial;' textLength='12.00px' lengthAdjust='spacingAndGlyphs'>(1%)</text>
<text x='397.49' y='207.99' text-anchor='middle' style='font-size: 5.69px; fill: #FFFFFF; font-family: Arial;' textLength='6.32px' lengthAdjust='spacingAndGlyphs'>51</text>
<text x='397.49' y='216.18' text-anchor='middle' style='font-size: 5.69px; fill: #FFFFFF; font-family: Arial;' textLength='12.00px' lengthAdjust='spacingAndGlyphs'>(6%)</text>
<text x='411.06' y='207.99' text-anchor='middle' style='font-size: 5.69px; fill: #FFFFFF; font-family: Arial;' textLength='6.32px' lengthAdjust='spacingAndGlyphs'>10</text>
<text x='411.06' y='216.18' text-anchor='middle' style='font-size: 5.69px; fill: #FFFFFF; font-family: Arial;' textLength='12.00px' lengthAdjust='spacingAndGlyphs'>(1%)</text>
<text x='418.18' y='207.99' text-anchor='middle' style='font-size: 5.69px; fill: #FFFFFF; font-family: Arial;' textLength='6.32px' lengthAdjust='spacingAndGlyphs'>22</text>
<text x='418.18' y='216.18' text-anchor='middle' style='font-size: 5.69px; fill: #FFFFFF; font-family: Arial;' textLength='12.00px' lengthAdjust='spacingAndGlyphs'>(3%)</text>
<text x='424.63' y='207.99' text-anchor='middle' style='font-size: 5.69px; fill: #FFFFFF; font-family: Arial;' textLength='3.16px' lengthAdjust='spacingAndGlyphs'>7</text>
<text x='424.63' y='216.18' text-anchor='middle' style='font-size: 5.69px; fill: #FFFFFF; font-family: Arial;' textLength='12.00px' lengthAdjust='spacingAndGlyphs'>(1%)</text>
<text x='457.11' y='207.99' text-anchor='middle' style='font-size: 5.69px; fill: #FFFFFF; font-family: Arial;' textLength='9.48px' lengthAdjust='spacingAndGlyphs'>139</text>
<text x='457.11' y='216.18' text-anchor='middle' style='font-size: 5.69px; fill: #FFFFFF; font-family: Arial;' textLength='15.16px' lengthAdjust='spacingAndGlyphs'>(16%)</text>
<text x='490.93' y='207.99' text-anchor='middle' style='font-size: 5.69px; fill: #FFFFFF; font-family: Arial;' textLength='6.32px' lengthAdjust='spacingAndGlyphs'>13</text>
<text x='490.93' y='216.18' text-anchor='middle' style='font-size: 5.69px; fill: #FFFFFF; font-family: Arial;' textLength='12.00px' lengthAdjust='spacingAndGlyphs'>(2%)</text>
<text x='495.82' y='207.99' text-anchor='middle' style='font-size: 5.69px; fill: #FFFFFF; font-family: Arial;' textLength='3.16px' lengthAdjust='spacingAndGlyphs'>9</text>
<text x='495.82' y='216.18' text-anchor='middle' style='font-size: 5.69px; fill: #FFFFFF; font-family: Arial;' textLength='12.00px' lengthAdjust='spacingAndGlyphs'>(1%)</text>
<text x='514.51' y='207.99' text-anchor='middle' style='font-size: 5.69px; fill: #FFFFFF; font-family: Arial;' textLength='6.32px' lengthAdjust='spacingAndGlyphs'>67</text>
<text x='514.51' y='216.18' text-anchor='middle' style='font-size: 5.69px; fill: #FFFFFF; font-family: Arial;' textLength='12.00px' lengthAdjust='spacingAndGlyphs'>(8%)</text>
<text x='532.97' y='207.99' text-anchor='middle' style='font-size: 5.69px; fill: #FFFFFF; font-family: Arial;' textLength='6.32px' lengthAdjust='spacingAndGlyphs'>16</text>
<text x='532.97' y='216.18' text-anchor='middle' style='font-size: 5.69px; fill: #FFFFFF; font-family: Arial;' textLength='12.00px' lengthAdjust='spacingAndGlyphs'>(2%)</text>
<text x='199.66' y='176.99' text-anchor='middle' style='font-size: 5.69px; fill: #FFFFFF; font-family: Arial;' textLength='9.48px' lengthAdjust='spacingAndGlyphs'>180</text>
<text x='199.66' y='185.19' text-anchor='middle' style='font-size: 5.69px; fill: #FFFFFF; font-family: Arial;' textLength='15.16px' lengthAdjust='spacingAndGlyphs'>(21%)</text>
<text x='256.99' y='176.99' text-anchor='middle' style='font-size: 5.69px; fill: #FFFFFF; font-family: Arial;' textLength='6.32px' lengthAdjust='spacingAndGlyphs'>78</text>
<text x='256.99' y='185.19' text-anchor='middle' style='font-size: 5.69px; fill: #FFFFFF; font-family: Arial;' textLength='12.00px' lengthAdjust='spacingAndGlyphs'>(9%)</text>
<text x='291.21' y='176.99' text-anchor='middle' style='font-size: 5.69px; fill: #FFFFFF; font-family: Arial;' textLength='6.32px' lengthAdjust='spacingAndGlyphs'>76</text>
<text x='291.21' y='185.19' text-anchor='middle' style='font-size: 5.69px; fill: #FFFFFF; font-family: Arial;' textLength='12.00px' lengthAdjust='spacingAndGlyphs'>(9%)</text>
<text x='321.88' y='176.99' text-anchor='middle' style='font-size: 5.69px; fill: #FFFFFF; font-family: Arial;' textLength='6.32px' lengthAdjust='spacingAndGlyphs'>62</text>
<text x='321.88' y='185.19' text-anchor='middle' style='font-size: 5.69px; fill: #FFFFFF; font-family: Arial;' textLength='12.00px' lengthAdjust='spacingAndGlyphs'>(7%)</text>
<text x='342.55' y='176.99' text-anchor='middle' style='font-size: 5.69px; fill: #FFFFFF; font-family: Arial;' textLength='6.32px' lengthAdjust='spacingAndGlyphs'>31</text>
<text x='342.55' y='185.19' text-anchor='middle' style='font-size: 5.69px; fill: #FFFFFF; font-family: Arial;' textLength='12.00px' lengthAdjust='spacingAndGlyphs'>(4%)</text>
<text x='356.32' y='176.99' text-anchor='middle' style='font-size: 5.69px; fill: #FFFFFF; font-family: Arial;' textLength='6.32px' lengthAdjust='spacingAndGlyphs'>31</text>
<text x='356.32' y='185.19' text-anchor='middle' style='font-size: 5.69px; fill: #FFFFFF; font-family: Arial;' textLength='12.00px' lengthAdjust='spacingAndGlyphs'>(4%)</text>
<text x='398.77' y='176.99' text-anchor='middle' style='font-size: 5.69px; fill: #FFFFFF; font-family: Arial;' textLength='9.48px' lengthAdjust='spacingAndGlyphs'>160</text>
<text x='398.77' y='185.19' text-anchor='middle' style='font-size: 5.69px; fill: #FFFFFF; font-family: Arial;' textLength='15.16px' lengthAdjust='spacingAndGlyphs'>(19%)</text>
<text x='437.65' y='176.99' text-anchor='middle' style='font-size: 5.69px; fill: #FFFFFF; font-family: Arial;' textLength='3.16px' lengthAdjust='spacingAndGlyphs'>7</text>
<text x='437.65' y='185.19' text-anchor='middle' style='font-size: 5.69px; fill: #FFFFFF; font-family: Arial;' textLength='12.00px' lengthAdjust='spacingAndGlyphs'>(1%)</text>
<text x='442.76' y='176.99' text-anchor='middle' style='font-size: 5.69px; fill: #FFFFFF; font-family: Arial;' textLength='6.32px' lengthAdjust='spacingAndGlyphs'>14</text>
<text x='442.76' y='185.19' text-anchor='middle' style='font-size: 5.69px; fill: #FFFFFF; font-family: Arial;' textLength='12.00px' lengthAdjust='spacingAndGlyphs'>(2%)</text>
<text x='464.76' y='176.99' text-anchor='middle' style='font-size: 5.69px; fill: #FFFFFF; font-family: Arial;' textLength='6.32px' lengthAdjust='spacingAndGlyphs'>85</text>
<text x='464.76' y='185.19' text-anchor='middle' style='font-size: 5.69px; fill: #FFFFFF; font-family: Arial;' textLength='15.16px' lengthAdjust='spacingAndGlyphs'>(10%)</text>
<text x='490.76' y='176.99' text-anchor='middle' style='font-size: 5.69px; fill: #FFFFFF; font-family: Arial;' textLength='6.32px' lengthAdjust='spacingAndGlyphs'>24</text>
<text x='490.76' y='185.19' text-anchor='middle' style='font-size: 5.69px; fill: #FFFFFF; font-family: Arial;' textLength='12.00px' lengthAdjust='spacingAndGlyphs'>(3%)</text>
<text x='499.65' y='176.99' text-anchor='middle' style='font-size: 5.69px; fill: #FFFFFF; font-family: Arial;' textLength='6.32px' lengthAdjust='spacingAndGlyphs'>10</text>
<text x='499.65' y='185.19' text-anchor='middle' style='font-size: 5.69px; fill: #FFFFFF; font-family: Arial;' textLength='12.00px' lengthAdjust='spacingAndGlyphs'>(1%)</text>
<text x='516.32' y='176.99' text-anchor='middle' style='font-size: 5.69px; fill: #FFFFFF; font-family: Arial;' textLength='6.32px' lengthAdjust='spacingAndGlyphs'>59</text>
<text x='516.32' y='185.19' text-anchor='middle' style='font-size: 5.69px; fill: #FFFFFF; font-family: Arial;' textLength='12.00px' lengthAdjust='spacingAndGlyphs'>(7%)</text>
<text x='531.43' y='176.99' text-anchor='middle' style='font-size: 5.69px; fill: #FFFFFF; font-family: Arial;' textLength='3.16px' lengthAdjust='spacingAndGlyphs'>9</text>
<text x='531.43' y='185.19' text-anchor='middle' style='font-size: 5.69px; fill: #FFFFFF; font-family: Arial;' textLength='12.00px' lengthAdjust='spacingAndGlyphs'>(1%)</text>
<text x='538.32' y='176.99' text-anchor='middle' style='font-size: 5.69px; fill: #FFFFFF; font-family: Arial;' textLength='6.32px' lengthAdjust='spacingAndGlyphs'>12</text>
<text x='538.32' y='185.19' text-anchor='middle' style='font-size: 5.69px; fill: #FFFFFF; font-family: Arial;' textLength='12.00px' lengthAdjust='spacingAndGlyphs'>(1%)</text>
<text x='263.23' y='146.00' text-anchor='middle' style='font-size: 5.69px; fill: #FFFFFF; font-family: Arial;' textLength='9.48px' lengthAdjust='spacingAndGlyphs'>465</text>
<text x='263.23' y='154.19' text-anchor='middle' style='font-size: 5.69px; fill: #FFFFFF; font-family: Arial;' textLength='15.16px' lengthAdjust='spacingAndGlyphs'>(54%)</text>
<text x='398.21' y='146.00' text-anchor='middle' style='font-size: 5.69px; fill: #FFFFFF; font-family: Arial;' textLength='9.48px' lengthAdjust='spacingAndGlyphs'>141</text>
<text x='398.21' y='154.19' text-anchor='middle' style='font-size: 5.69px; fill: #FFFFFF; font-family: Arial;' textLength='15.16px' lengthAdjust='spacingAndGlyphs'>(16%)</text>
<text x='450.33' y='146.00' text-anchor='middle' style='font-size: 5.69px; fill: #FFFFFF; font-family: Arial;' textLength='6.32px' lengthAdjust='spacingAndGlyphs'>93</text>
<text x='450.33' y='154.19' text-anchor='middle' style='font-size: 5.69px; fill: #FFFFFF; font-family: Arial;' textLength='14.74px' lengthAdjust='spacingAndGlyphs'>(11%)</text>
<text x='481.96' y='146.00' text-anchor='middle' style='font-size: 5.69px; fill: #FFFFFF; font-family: Arial;' textLength='6.32px' lengthAdjust='spacingAndGlyphs'>49</text>
<text x='481.96' y='154.19' text-anchor='middle' style='font-size: 5.69px; fill: #FFFFFF; font-family: Arial;' textLength='12.00px' lengthAdjust='spacingAndGlyphs'>(6%)</text>
<text x='496.21' y='146.00' text-anchor='middle' style='font-size: 5.69px; fill: #FFFFFF; font-family: Arial;' textLength='6.32px' lengthAdjust='spacingAndGlyphs'>15</text>
<text x='496.21' y='154.19' text-anchor='middle' style='font-size: 5.69px; fill: #FFFFFF; font-family: Arial;' textLength='12.00px' lengthAdjust='spacingAndGlyphs'>(2%)</text>
<text x='501.78' y='146.00' text-anchor='middle' style='font-size: 5.69px; fill: #FFFFFF; font-family: Arial;' textLength='6.32px' lengthAdjust='spacingAndGlyphs'>10</text>
<text x='501.78' y='154.19' text-anchor='middle' style='font-size: 5.69px; fill: #FFFFFF; font-family: Arial;' textLength='12.00px' lengthAdjust='spacingAndGlyphs'>(1%)</text>
<text x='515.81' y='146.00' text-anchor='middle' style='font-size: 5.69px; fill: #FFFFFF; font-family: Arial;' textLength='6.32px' lengthAdjust='spacingAndGlyphs'>53</text>
<text x='515.81' y='154.19' text-anchor='middle' style='font-size: 5.69px; fill: #FFFFFF; font-family: Arial;' textLength='12.00px' lengthAdjust='spacingAndGlyphs'>(6%)</text>
<text x='534.52' y='146.00' text-anchor='middle' style='font-size: 5.69px; fill: #FFFFFF; font-family: Arial;' textLength='6.32px' lengthAdjust='spacingAndGlyphs'>15</text>
<text x='534.52' y='154.19' text-anchor='middle' style='font-size: 5.69px; fill: #FFFFFF; font-family: Arial;' textLength='12.00px' lengthAdjust='spacingAndGlyphs'>(2%)</text>
<text x='217.98' y='115.00' text-anchor='middle' style='font-size: 5.69px; fill: #FFFFFF; font-family: Arial;' textLength='9.48px' lengthAdjust='spacingAndGlyphs'>260</text>
<text x='217.98' y='123.20' text-anchor='middle' style='font-size: 5.69px; fill: #FFFFFF; font-family: Arial;' textLength='15.16px' lengthAdjust='spacingAndGlyphs'>(30%)</text>
<text x='318.69' y='115.00' text-anchor='middle' style='font-size: 5.69px; fill: #FFFFFF; font-family: Arial;' textLength='9.48px' lengthAdjust='spacingAndGlyphs'>189</text>
<text x='318.69' y='123.20' text-anchor='middle' style='font-size: 5.69px; fill: #FFFFFF; font-family: Arial;' textLength='15.16px' lengthAdjust='spacingAndGlyphs'>(22%)</text>
<text x='393.38' y='115.00' text-anchor='middle' style='font-size: 5.69px; fill: #FFFFFF; font-family: Arial;' textLength='9.48px' lengthAdjust='spacingAndGlyphs'>144</text>
<text x='393.38' y='123.20' text-anchor='middle' style='font-size: 5.69px; fill: #FFFFFF; font-family: Arial;' textLength='15.16px' lengthAdjust='spacingAndGlyphs'>(17%)</text>
<text x='439.36' y='115.00' text-anchor='middle' style='font-size: 5.69px; fill: #FFFFFF; font-family: Arial;' textLength='6.32px' lengthAdjust='spacingAndGlyphs'>61</text>
<text x='439.36' y='123.20' text-anchor='middle' style='font-size: 5.69px; fill: #FFFFFF; font-family: Arial;' textLength='12.00px' lengthAdjust='spacingAndGlyphs'>(7%)</text>
<text x='462.24' y='115.00' text-anchor='middle' style='font-size: 5.69px; fill: #FFFFFF; font-family: Arial;' textLength='6.32px' lengthAdjust='spacingAndGlyphs'>41</text>
<text x='462.24' y='123.20' text-anchor='middle' style='font-size: 5.69px; fill: #FFFFFF; font-family: Arial;' textLength='12.00px' lengthAdjust='spacingAndGlyphs'>(5%)</text>
<text x='477.72' y='115.00' text-anchor='middle' style='font-size: 5.69px; fill: #FFFFFF; font-family: Arial;' textLength='6.32px' lengthAdjust='spacingAndGlyphs'>28</text>
<text x='477.72' y='123.20' text-anchor='middle' style='font-size: 5.69px; fill: #FFFFFF; font-family: Arial;' textLength='12.00px' lengthAdjust='spacingAndGlyphs'>(3%)</text>
<text x='500.60' y='115.00' text-anchor='middle' style='font-size: 5.69px; fill: #FFFFFF; font-family: Arial;' textLength='6.32px' lengthAdjust='spacingAndGlyphs'>74</text>
<text x='500.60' y='123.20' text-anchor='middle' style='font-size: 5.69px; fill: #FFFFFF; font-family: Arial;' textLength='12.00px' lengthAdjust='spacingAndGlyphs'>(9%)</text>
<text x='522.58' y='115.00' text-anchor='middle' style='font-size: 5.69px; fill: #FFFFFF; font-family: Arial;' textLength='3.16px' lengthAdjust='spacingAndGlyphs'>6</text>
<text x='522.58' y='123.20' text-anchor='middle' style='font-size: 5.69px; fill: #FFFFFF; font-family: Arial;' textLength='12.00px' lengthAdjust='spacingAndGlyphs'>(1%)</text>
<text x='529.08' y='115.00' text-anchor='middle' style='font-size: 5.69px; fill: #FFFFFF; font-family: Arial;' textLength='6.32px' lengthAdjust='spacingAndGlyphs'>23</text>
<text x='529.08' y='123.20' text-anchor='middle' style='font-size: 5.69px; fill: #FFFFFF; font-family: Arial;' textLength='12.00px' lengthAdjust='spacingAndGlyphs'>(3%)</text>
<text x='537.16' y='115.00' text-anchor='middle' style='font-size: 5.69px; fill: #FFFFFF; font-family: Arial;' textLength='3.16px' lengthAdjust='spacingAndGlyphs'>7</text>
<text x='537.16' y='123.20' text-anchor='middle' style='font-size: 5.69px; fill: #FFFFFF; font-family: Arial;' textLength='12.00px' lengthAdjust='spacingAndGlyphs'>(1%)</text>
<text x='244.42' y='84.01' text-anchor='middle' style='font-size: 5.69px; fill: #FFFFFF; font-family: Arial;' textLength='9.48px' lengthAdjust='spacingAndGlyphs'>377</text>
<text x='244.42' y='92.20' text-anchor='middle' style='font-size: 5.69px; fill: #FFFFFF; font-family: Arial;' textLength='15.16px' lengthAdjust='spacingAndGlyphs'>(44%)</text>
<text x='375.72' y='84.01' text-anchor='middle' style='font-size: 5.69px; fill: #FFFFFF; font-family: Arial;' textLength='9.48px' lengthAdjust='spacingAndGlyphs'>207</text>
<text x='375.72' y='92.20' text-anchor='middle' style='font-size: 5.69px; fill: #FFFFFF; font-family: Arial;' textLength='15.16px' lengthAdjust='spacingAndGlyphs'>(24%)</text>
<text x='449.24' y='84.01' text-anchor='middle' style='font-size: 5.69px; fill: #FFFFFF; font-family: Arial;' textLength='9.48px' lengthAdjust='spacingAndGlyphs'>120</text>
<text x='449.24' y='92.20' text-anchor='middle' style='font-size: 5.69px; fill: #FFFFFF; font-family: Arial;' textLength='15.16px' lengthAdjust='spacingAndGlyphs'>(14%)</text>
<text x='488.13' y='84.01' text-anchor='middle' style='font-size: 5.69px; fill: #FFFFFF; font-family: Arial;' textLength='6.32px' lengthAdjust='spacingAndGlyphs'>53</text>
<text x='488.13' y='92.20' text-anchor='middle' style='font-size: 5.69px; fill: #FFFFFF; font-family: Arial;' textLength='12.00px' lengthAdjust='spacingAndGlyphs'>(6%)</text>
<text x='505.22' y='84.01' text-anchor='middle' style='font-size: 5.69px; fill: #FFFFFF; font-family: Arial;' textLength='6.32px' lengthAdjust='spacingAndGlyphs'>23</text>
<text x='505.22' y='92.20' text-anchor='middle' style='font-size: 5.69px; fill: #FFFFFF; font-family: Arial;' textLength='12.00px' lengthAdjust='spacingAndGlyphs'>(3%)</text>
<text x='513.76' y='84.01' text-anchor='middle' style='font-size: 5.69px; fill: #FFFFFF; font-family: Arial;' textLength='6.32px' lengthAdjust='spacingAndGlyphs'>15</text>
<text x='513.76' y='92.20' text-anchor='middle' style='font-size: 5.69px; fill: #FFFFFF; font-family: Arial;' textLength='12.00px' lengthAdjust='spacingAndGlyphs'>(2%)</text>
<text x='525.68' y='84.01' text-anchor='middle' style='font-size: 5.69px; fill: #FFFFFF; font-family: Arial;' textLength='6.32px' lengthAdjust='spacingAndGlyphs'>38</text>
<text x='525.68' y='92.20' text-anchor='middle' style='font-size: 5.69px; fill: #FFFFFF; font-family: Arial;' textLength='12.00px' lengthAdjust='spacingAndGlyphs'>(4%)</text>
<text x='536.25' y='84.01' text-anchor='middle' style='font-size: 5.69px; fill: #FFFFFF; font-family: Arial;' textLength='3.16px' lengthAdjust='spacingAndGlyphs'>5</text>
<text x='536.25' y='92.20' text-anchor='middle' style='font-size: 5.69px; fill: #FFFFFF; font-family: Arial;' textLength='12.00px' lengthAdjust='spacingAndGlyphs'>(1%)</text>
<text x='538.94' y='84.01' text-anchor='middle' style='font-size: 5.69px; fill: #FFFFFF; font-family: Arial;' textLength='3.16px' lengthAdjust='spacingAndGlyphs'>7</text>
<text x='538.94' y='92.20' text-anchor='middle' style='font-size: 5.69px; fill: #FFFFFF; font-family: Arial;' textLength='12.00px' lengthAdjust='spacingAndGlyphs'>(1%)</text>
<text x='229.83' y='53.01' text-anchor='middle' style='font-size: 5.69px; fill: #FFFFFF; font-family: Arial;' textLength='9.06px' lengthAdjust='spacingAndGlyphs'>311</text>
<text x='229.83' y='61.21' text-anchor='middle' style='font-size: 5.69px; fill: #FFFFFF; font-family: Arial;' textLength='15.16px' lengthAdjust='spacingAndGlyphs'>(37%)</text>
<text x='347.61' y='53.01' text-anchor='middle' style='font-size: 5.69px; fill: #FFFFFF; font-family: Arial;' textLength='9.06px' lengthAdjust='spacingAndGlyphs'>211</text>
<text x='347.61' y='61.21' text-anchor='middle' style='font-size: 5.69px; fill: #FFFFFF; font-family: Arial;' textLength='15.16px' lengthAdjust='spacingAndGlyphs'>(25%)</text>
<text x='427.48' y='53.01' text-anchor='middle' style='font-size: 5.69px; fill: #FFFFFF; font-family: Arial;' textLength='9.48px' lengthAdjust='spacingAndGlyphs'>143</text>
<text x='427.48' y='61.21' text-anchor='middle' style='font-size: 5.69px; fill: #FFFFFF; font-family: Arial;' textLength='15.16px' lengthAdjust='spacingAndGlyphs'>(17%)</text>
<text x='473.05' y='53.01' text-anchor='middle' style='font-size: 5.69px; fill: #FFFFFF; font-family: Arial;' textLength='6.32px' lengthAdjust='spacingAndGlyphs'>59</text>
<text x='473.05' y='61.21' text-anchor='middle' style='font-size: 5.69px; fill: #FFFFFF; font-family: Arial;' textLength='12.00px' lengthAdjust='spacingAndGlyphs'>(7%)</text>
<text x='493.13' y='53.01' text-anchor='middle' style='font-size: 5.69px; fill: #FFFFFF; font-family: Arial;' textLength='6.32px' lengthAdjust='spacingAndGlyphs'>30</text>
<text x='493.13' y='61.21' text-anchor='middle' style='font-size: 5.69px; fill: #FFFFFF; font-family: Arial;' textLength='12.00px' lengthAdjust='spacingAndGlyphs'>(4%)</text>
<text x='503.28' y='53.01' text-anchor='middle' style='font-size: 5.69px; fill: #FFFFFF; font-family: Arial;' textLength='6.32px' lengthAdjust='spacingAndGlyphs'>15</text>
<text x='503.28' y='61.21' text-anchor='middle' style='font-size: 5.69px; fill: #FFFFFF; font-family: Arial;' textLength='12.00px' lengthAdjust='spacingAndGlyphs'>(2%)</text>
<text x='517.95' y='53.01' text-anchor='middle' style='font-size: 5.69px; fill: #FFFFFF; font-family: Arial;' textLength='6.32px' lengthAdjust='spacingAndGlyphs'>50</text>
<text x='517.95' y='61.21' text-anchor='middle' style='font-size: 5.69px; fill: #FFFFFF; font-family: Arial;' textLength='12.00px' lengthAdjust='spacingAndGlyphs'>(6%)</text>
<text x='534.42' y='53.01' text-anchor='middle' style='font-size: 5.69px; fill: #FFFFFF; font-family: Arial;' textLength='6.32px' lengthAdjust='spacingAndGlyphs'>17</text>
<text x='534.42' y='61.21' text-anchor='middle' style='font-size: 5.69px; fill: #FFFFFF; font-family: Arial;' textLength='12.00px' lengthAdjust='spacingAndGlyphs'>(2%)</text>
<text x='191.06' y='22.02' text-anchor='middle' style='font-size: 5.69px; fill: #FFFFFF; font-family: Arial;' textLength='9.48px' lengthAdjust='spacingAndGlyphs'>140</text>
<text x='191.06' y='30.21' text-anchor='middle' style='font-size: 5.69px; fill: #FFFFFF; font-family: Arial;' textLength='15.16px' lengthAdjust='spacingAndGlyphs'>(16%)</text>
<text x='266.20' y='22.02' text-anchor='middle' style='font-size: 5.69px; fill: #FFFFFF; font-family: Arial;' textLength='9.48px' lengthAdjust='spacingAndGlyphs'>195</text>
<text x='266.20' y='30.21' text-anchor='middle' style='font-size: 5.69px; fill: #FFFFFF; font-family: Arial;' textLength='15.16px' lengthAdjust='spacingAndGlyphs'>(23%)</text>
<text x='346.05' y='22.02' text-anchor='middle' style='font-size: 5.69px; fill: #FFFFFF; font-family: Arial;' textLength='9.48px' lengthAdjust='spacingAndGlyphs'>161</text>
<text x='346.05' y='30.21' text-anchor='middle' style='font-size: 5.69px; fill: #FFFFFF; font-family: Arial;' textLength='15.16px' lengthAdjust='spacingAndGlyphs'>(19%)</text>
<text x='405.05' y='22.02' text-anchor='middle' style='font-size: 5.69px; fill: #FFFFFF; font-family: Arial;' textLength='9.48px' lengthAdjust='spacingAndGlyphs'>102</text>
<text x='405.05' y='30.21' text-anchor='middle' style='font-size: 5.69px; fill: #FFFFFF; font-family: Arial;' textLength='15.16px' lengthAdjust='spacingAndGlyphs'>(12%)</text>
<text x='443.18' y='22.02' text-anchor='middle' style='font-size: 5.69px; fill: #FFFFFF; font-family: Arial;' textLength='6.32px' lengthAdjust='spacingAndGlyphs'>68</text>
<text x='443.18' y='30.21' text-anchor='middle' style='font-size: 5.69px; fill: #FFFFFF; font-family: Arial;' textLength='12.00px' lengthAdjust='spacingAndGlyphs'>(8%)</text>
<text x='470.99' y='22.02' text-anchor='middle' style='font-size: 5.69px; fill: #FFFFFF; font-family: Arial;' textLength='6.32px' lengthAdjust='spacingAndGlyphs'>56</text>
<text x='470.99' y='30.21' text-anchor='middle' style='font-size: 5.69px; fill: #FFFFFF; font-family: Arial;' textLength='12.00px' lengthAdjust='spacingAndGlyphs'>(7%)</text>
<text x='498.80' y='22.02' text-anchor='middle' style='font-size: 5.69px; fill: #FFFFFF; font-family: Arial;' textLength='6.32px' lengthAdjust='spacingAndGlyphs'>68</text>
<text x='498.80' y='30.21' text-anchor='middle' style='font-size: 5.69px; fill: #FFFFFF; font-family: Arial;' textLength='12.00px' lengthAdjust='spacingAndGlyphs'>(8%)</text>
<text x='516.52' y='22.02' text-anchor='middle' style='font-size: 5.69px; fill: #FFFFFF; font-family: Arial;' textLength='5.90px' lengthAdjust='spacingAndGlyphs'>11</text>
<text x='516.52' y='30.21' text-anchor='middle' style='font-size: 5.69px; fill: #FFFFFF; font-family: Arial;' textLength='12.00px' lengthAdjust='spacingAndGlyphs'>(1%)</text>
<text x='520.11' y='22.02' text-anchor='middle' style='font-size: 5.69px; fill: #FFFFFF; font-family: Arial;' textLength='3.16px' lengthAdjust='spacingAndGlyphs'>5</text>
<text x='520.11' y='30.21' text-anchor='middle' style='font-size: 5.69px; fill: #FFFFFF; font-family: Arial;' textLength='12.00px' lengthAdjust='spacingAndGlyphs'>(1%)</text>
<text x='523.92' y='22.02' text-anchor='middle' style='font-size: 5.69px; fill: #FFFFFF; font-family: Arial;' textLength='3.16px' lengthAdjust='spacingAndGlyphs'>8</text>
<text x='523.92' y='30.21' text-anchor='middle' style='font-size: 5.69px; fill: #FFFFFF; font-family: Arial;' textLength='12.00px' lengthAdjust='spacingAndGlyphs'>(1%)</text>
<text x='529.76' y='22.02' text-anchor='middle' style='font-size: 5.69px; fill: #FFFFFF; font-family: Arial;' textLength='6.32px' lengthAdjust='spacingAndGlyphs'>18</text>
<text x='529.76' y='30.21' text-anchor='middle' style='font-size: 5.69px; fill: #FFFFFF; font-family: Arial;' textLength='12.00px' lengthAdjust='spacingAndGlyphs'>(2%)</text>
<text x='536.04' y='22.02' text-anchor='middle' style='font-size: 5.69px; fill: #FFFFFF; font-family: Arial;' textLength='6.32px' lengthAdjust='spacingAndGlyphs'>10</text>
<text x='536.04' y='30.21' text-anchor='middle' style='font-size: 5.69px; fill: #FFFFFF; font-family: Arial;' textLength='12.00px' lengthAdjust='spacingAndGlyphs'>(1%)</text>
</g>
<g clip-path='url(#cpMC4wMHw1NjYuOTN8MC4wMHwzNDAuMTY=)'>
<text x='135.60' y='244.19' text-anchor='end' style='font-size: 8.80px; fill: #4D4D4D; font-family: Arial;' textLength='102.27px' lengthAdjust='spacingAndGlyphs'>goingOutFreq_houseparty</text>
<text x='135.60' y='213.20' text-anchor='end' style='font-size: 8.80px; fill: #4D4D4D; font-family: Arial;' textLength='75.36px' lengthAdjust='spacingAndGlyphs'>goingOutFreq_cafe</text>
<text x='135.60' y='182.20' text-anchor='end' style='font-size: 8.80px; fill: #4D4D4D; font-family: Arial;' textLength='79.26px' lengthAdjust='spacingAndGlyphs'>goingOutFreq_disco</text>
<text x='135.60' y='151.21' text-anchor='end' style='font-size: 8.80px; fill: #4D4D4D; font-family: Arial;' textLength='78.30px' lengthAdjust='spacingAndGlyphs'>goingOutFreq_band</text>
<text x='135.60' y='120.21' text-anchor='end' style='font-size: 8.80px; fill: #4D4D4D; font-family: Arial;' textLength='123.27px' lengthAdjust='spacingAndGlyphs'>goingOutFreq_smallPartyInside</text>
<text x='135.60' y='89.22' text-anchor='end' style='font-size: 8.80px; fill: #4D4D4D; font-family: Arial;' textLength='114.49px' lengthAdjust='spacingAndGlyphs'>goingOutFreq_bigPartyInside</text>
<text x='135.60' y='58.22' text-anchor='end' style='font-size: 8.80px; fill: #4D4D4D; font-family: Arial;' textLength='130.12px' lengthAdjust='spacingAndGlyphs'>goingOutFreq_smallPartyOutside</text>
<text x='135.60' y='27.23' text-anchor='end' style='font-size: 8.80px; fill: #4D4D4D; font-family: Arial;' textLength='121.33px' lengthAdjust='spacingAndGlyphs'>goingOutFreq_bigPartyOutside</text>
<text x='159.66' y='270.87' text-anchor='middle' style='font-size: 8.80px; fill: #4D4D4D; font-family: Arial;' textLength='4.90px' lengthAdjust='spacingAndGlyphs'>0</text>
<text x='255.33' y='270.87' text-anchor='middle' style='font-size: 8.80px; fill: #4D4D4D; font-family: Arial;' textLength='9.79px' lengthAdjust='spacingAndGlyphs'>25</text>
<text x='350.99' y='270.87' text-anchor='middle' style='font-size: 8.80px; fill: #4D4D4D; font-family: Arial;' textLength='9.79px' lengthAdjust='spacingAndGlyphs'>50</text>
<text x='446.65' y='270.87' text-anchor='middle' style='font-size: 8.80px; fill: #4D4D4D; font-family: Arial;' textLength='9.79px' lengthAdjust='spacingAndGlyphs'>75</text>
<text x='542.32' y='270.87' text-anchor='middle' style='font-size: 8.80px; fill: #4D4D4D; font-family: Arial;' textLength='14.69px' lengthAdjust='spacingAndGlyphs'>100</text>
<rect x='-29.25' y='289.87' width='15.86' height='15.86' style='stroke-width: 1.07; stroke: none; stroke-linecap: square; stroke-linejoin: miter; fill: #440154;' />
<rect x='8.78' y='289.87' width='15.86' height='15.86' style='stroke-width: 1.07; stroke: none; stroke-linecap: square; stroke-linejoin: miter; fill: #460B5D;' />
<rect x='46.81' y='289.87' width='15.86' height='15.86' style='stroke-width: 1.07; stroke: none; stroke-linecap: square; stroke-linejoin: miter; fill: #481467;' />
<rect x='84.84' y='289.87' width='15.86' height='15.86' style='stroke-width: 1.07; stroke: none; stroke-linecap: square; stroke-linejoin: miter; fill: #481D6F;' />
<rect x='122.87' y='289.87' width='15.86' height='15.86' style='stroke-width: 1.07; stroke: none; stroke-linecap: square; stroke-linejoin: miter; fill: #482576;' />
<rect x='160.90' y='289.87' width='15.86' height='15.86' style='stroke-width: 1.07; stroke: none; stroke-linecap: square; stroke-linejoin: miter; fill: #472E7C;' />
<rect x='198.93' y='289.87' width='15.86' height='15.86' style='stroke-width: 1.07; stroke: none; stroke-linecap: square; stroke-linejoin: miter; fill: #453581;' />
<rect x='241.86' y='289.87' width='15.86' height='15.86' style='stroke-width: 1.07; stroke: none; stroke-linecap: square; stroke-linejoin: miter; fill: #433E85;' />
<rect x='284.79' y='289.87' width='15.86' height='15.86' style='stroke-width: 1.07; stroke: none; stroke-linecap: square; stroke-linejoin: miter; fill: #404588;' />
<rect x='322.82' y='289.87' width='15.86' height='15.86' style='stroke-width: 1.07; stroke: none; stroke-linecap: square; stroke-linejoin: miter; fill: #3D4D8A;' />
<rect x='360.85' y='289.87' width='15.86' height='15.86' style='stroke-width: 1.07; stroke: none; stroke-linecap: square; stroke-linejoin: miter; fill: #3A538B;' />
<rect x='398.88' y='289.87' width='15.86' height='15.86' style='stroke-width: 1.07; stroke: none; stroke-linecap: square; stroke-linejoin: miter; fill: #375B8D;' />
<rect x='436.91' y='289.87' width='15.86' height='15.86' style='stroke-width: 1.07; stroke: none; stroke-linecap: square; stroke-linejoin: miter; fill: #34618D;' />
<rect x='474.94' y='289.87' width='15.86' height='15.86' style='stroke-width: 1.07; stroke: none; stroke-linecap: square; stroke-linejoin: miter; fill: #31688E;' />
<rect x='512.97' y='289.87' width='15.86' height='15.86' style='stroke-width: 1.07; stroke: none; stroke-linecap: square; stroke-linejoin: miter; fill: #2E6F8E;' />
<rect x='551.00' y='289.87' width='15.86' height='15.86' style='stroke-width: 1.07; stroke: none; stroke-linecap: square; stroke-linejoin: miter; fill: #2B748E;' />
<rect x='589.04' y='289.87' width='15.86' height='15.86' style='stroke-width: 1.07; stroke: none; stroke-linecap: square; stroke-linejoin: miter; fill: #297B8E;' />
<rect x='627.07' y='289.87' width='15.86' height='15.86' style='stroke-width: 1.07; stroke: none; stroke-linecap: square; stroke-linejoin: miter; fill: #26818E;' />
<rect x='665.10' y='289.87' width='15.86' height='15.86' style='stroke-width: 1.07; stroke: none; stroke-linecap: square; stroke-linejoin: miter; fill: #24878E;' />
<rect x='705.58' y='289.87' width='15.86' height='15.86' style='stroke-width: 1.07; stroke: none; stroke-linecap: square; stroke-linejoin: miter; fill: #228D8D;' />
<rect x='-29.25' y='312.63' width='15.86' height='15.86' style='stroke-width: 1.07; stroke: none; stroke-linecap: square; stroke-linejoin: miter; fill: #20938C;' />
<rect x='8.78' y='312.63' width='15.86' height='15.86' style='stroke-width: 1.07; stroke: none; stroke-linecap: square; stroke-linejoin: miter; fill: #1F998A;' />
<rect x='46.81' y='312.63' width='15.86' height='15.86' style='stroke-width: 1.07; stroke: none; stroke-linecap: square; stroke-linejoin: miter; fill: #1FA088;' />
<rect x='84.84' y='312.63' width='15.86' height='15.86' style='stroke-width: 1.07; stroke: none; stroke-linecap: square; stroke-linejoin: miter; fill: #21A585;' />
<rect x='122.87' y='312.63' width='15.86' height='15.86' style='stroke-width: 1.07; stroke: none; stroke-linecap: square; stroke-linejoin: miter; fill: #25AC82;' />
<rect x='160.90' y='312.63' width='15.86' height='15.86' style='stroke-width: 1.07; stroke: none; stroke-linecap: square; stroke-linejoin: miter; fill: #2DB17E;' />
<rect x='198.93' y='312.63' width='15.86' height='15.86' style='stroke-width: 1.07; stroke: none; stroke-linecap: square; stroke-linejoin: miter; fill: #35B779;' />
<rect x='241.86' y='312.63' width='15.86' height='15.86' style='stroke-width: 1.07; stroke: none; stroke-linecap: square; stroke-linejoin: miter; fill: #40BC72;' />
<rect x='284.79' y='312.63' width='15.86' height='15.86' style='stroke-width: 1.07; stroke: none; stroke-linecap: square; stroke-linejoin: miter; fill: #4CC26C;' />
<rect x='322.82' y='312.63' width='15.86' height='15.86' style='stroke-width: 1.07; stroke: none; stroke-linecap: square; stroke-linejoin: miter; fill: #59C864;' />
<rect x='360.85' y='312.63' width='15.86' height='15.86' style='stroke-width: 1.07; stroke: none; stroke-linecap: square; stroke-linejoin: miter; fill: #67CC5C;' />
<rect x='398.88' y='312.63' width='15.86' height='15.86' style='stroke-width: 1.07; stroke: none; stroke-linecap: square; stroke-linejoin: miter; fill: #76D153;' />
<rect x='436.91' y='312.63' width='15.86' height='15.86' style='stroke-width: 1.07; stroke: none; stroke-linecap: square; stroke-linejoin: miter; fill: #87D549;' />
<rect x='474.94' y='312.63' width='15.86' height='15.86' style='stroke-width: 1.07; stroke: none; stroke-linecap: square; stroke-linejoin: miter; fill: #97D83F;' />
<rect x='512.97' y='312.63' width='15.86' height='15.86' style='stroke-width: 1.07; stroke: none; stroke-linecap: square; stroke-linejoin: miter; fill: #A9DB33;' />
<rect x='551.00' y='312.63' width='15.86' height='15.86' style='stroke-width: 1.07; stroke: none; stroke-linecap: square; stroke-linejoin: miter; fill: #BADE28;' />
<rect x='589.04' y='312.63' width='15.86' height='15.86' style='stroke-width: 1.07; stroke: none; stroke-linecap: square; stroke-linejoin: miter; fill: #CBE11E;' />
<rect x='627.07' y='312.63' width='15.86' height='15.86' style='stroke-width: 1.07; stroke: none; stroke-linecap: square; stroke-linejoin: miter; fill: #DDE318;' />
<rect x='665.10' y='312.63' width='15.86' height='15.86' style='stroke-width: 1.07; stroke: none; stroke-linecap: square; stroke-linejoin: miter; fill: #EDE51B;' />
<rect x='705.58' y='312.63' width='15.86' height='15.86' style='stroke-width: 1.07; stroke: none; stroke-linecap: square; stroke-linejoin: miter; fill: #FDE725;' />
<text x='-7.20' y='300.95' style='font-size: 8.80px; font-family: Arial;' textLength='4.90px' lengthAdjust='spacingAndGlyphs'>0</text>
<text x='30.83' y='300.95' style='font-size: 8.80px; font-family: Arial;' textLength='4.90px' lengthAdjust='spacingAndGlyphs'>1</text>
<text x='68.86' y='300.95' style='font-size: 8.80px; font-family: Arial;' textLength='4.90px' lengthAdjust='spacingAndGlyphs'>2</text>
<text x='106.89' y='300.95' style='font-size: 8.80px; font-family: Arial;' textLength='4.90px' lengthAdjust='spacingAndGlyphs'>3</text>
<text x='144.92' y='300.95' style='font-size: 8.80px; font-family: Arial;' textLength='4.90px' lengthAdjust='spacingAndGlyphs'>4</text>
<text x='182.95' y='300.95' style='font-size: 8.80px; font-family: Arial;' textLength='4.90px' lengthAdjust='spacingAndGlyphs'>5</text>
<text x='220.98' y='300.95' style='font-size: 8.80px; font-family: Arial;' textLength='4.90px' lengthAdjust='spacingAndGlyphs'>6</text>
<text x='263.91' y='300.95' style='font-size: 8.80px; font-family: Arial;' textLength='4.90px' lengthAdjust='spacingAndGlyphs'>7</text>
<text x='306.84' y='300.95' style='font-size: 8.80px; font-family: Arial;' textLength='4.90px' lengthAdjust='spacingAndGlyphs'>8</text>
<text x='344.87' y='300.95' style='font-size: 8.80px; font-family: Arial;' textLength='4.90px' lengthAdjust='spacingAndGlyphs'>9</text>
<text x='382.90' y='300.95' style='font-size: 8.80px; font-family: Arial;' textLength='9.79px' lengthAdjust='spacingAndGlyphs'>10</text>
<text x='420.93' y='300.95' style='font-size: 8.80px; font-family: Arial;' textLength='9.79px' lengthAdjust='spacingAndGlyphs'>12</text>
<text x='458.96' y='300.95' style='font-size: 8.80px; font-family: Arial;' textLength='9.79px' lengthAdjust='spacingAndGlyphs'>15</text>
<text x='496.99' y='300.95' style='font-size: 8.80px; font-family: Arial;' textLength='9.79px' lengthAdjust='spacingAndGlyphs'>16</text>
<text x='535.02' y='300.95' style='font-size: 8.80px; font-family: Arial;' textLength='9.79px' lengthAdjust='spacingAndGlyphs'>18</text>
<text x='573.05' y='300.95' style='font-size: 8.80px; font-family: Arial;' textLength='9.79px' lengthAdjust='spacingAndGlyphs'>20</text>
<text x='611.09' y='300.95' style='font-size: 8.80px; font-family: Arial;' textLength='9.79px' lengthAdjust='spacingAndGlyphs'>24</text>
<text x='649.12' y='300.95' style='font-size: 8.80px; font-family: Arial;' textLength='9.79px' lengthAdjust='spacingAndGlyphs'>25</text>
<text x='687.15' y='300.95' style='font-size: 8.80px; font-family: Arial;' textLength='9.79px' lengthAdjust='spacingAndGlyphs'>26</text>
<text x='727.63' y='300.95' style='font-size: 8.80px; font-family: Arial;' textLength='9.79px' lengthAdjust='spacingAndGlyphs'>30</text>
<text x='-7.20' y='323.71' style='font-size: 8.80px; font-family: Arial;' textLength='9.79px' lengthAdjust='spacingAndGlyphs'>36</text>
<text x='30.83' y='323.71' style='font-size: 8.80px; font-family: Arial;' textLength='9.79px' lengthAdjust='spacingAndGlyphs'>42</text>
<text x='68.86' y='323.71' style='font-size: 8.80px; font-family: Arial;' textLength='9.79px' lengthAdjust='spacingAndGlyphs'>48</text>
<text x='106.89' y='323.71' style='font-size: 8.80px; font-family: Arial;' textLength='9.79px' lengthAdjust='spacingAndGlyphs'>52</text>
<text x='144.92' y='323.71' style='font-size: 8.80px; font-family: Arial;' textLength='9.79px' lengthAdjust='spacingAndGlyphs'>60</text>
<text x='182.95' y='323.71' style='font-size: 8.80px; font-family: Arial;' textLength='9.79px' lengthAdjust='spacingAndGlyphs'>78</text>
<text x='220.98' y='323.71' style='font-size: 8.80px; font-family: Arial;' textLength='14.69px' lengthAdjust='spacingAndGlyphs'>104</text>
<text x='263.91' y='323.71' style='font-size: 8.80px; font-family: Arial;' textLength='14.69px' lengthAdjust='spacingAndGlyphs'>130</text>
<text x='306.84' y='323.71' style='font-size: 8.80px; font-family: Arial;' textLength='9.79px' lengthAdjust='spacingAndGlyphs'>22</text>
<text x='344.87' y='323.71' style='font-size: 8.80px; font-family: Arial;' textLength='9.79px' lengthAdjust='spacingAndGlyphs'>32</text>
<text x='382.90' y='323.71' style='font-size: 8.80px; font-family: Arial;' textLength='9.79px' lengthAdjust='spacingAndGlyphs'>40</text>
<text x='420.93' y='323.71' style='font-size: 8.80px; font-family: Arial;' textLength='9.79px' lengthAdjust='spacingAndGlyphs'>50</text>
<text x='458.96' y='323.71' style='font-size: 8.80px; font-family: Arial;' textLength='9.79px' lengthAdjust='spacingAndGlyphs'>90</text>
<text x='496.99' y='323.71' style='font-size: 8.80px; font-family: Arial;' textLength='9.14px' lengthAdjust='spacingAndGlyphs'>11</text>
<text x='535.02' y='323.71' style='font-size: 8.80px; font-family: Arial;' textLength='9.79px' lengthAdjust='spacingAndGlyphs'>31</text>
<text x='573.05' y='323.71' style='font-size: 8.80px; font-family: Arial;' textLength='9.79px' lengthAdjust='spacingAndGlyphs'>33</text>
<text x='611.09' y='323.71' style='font-size: 8.80px; font-family: Arial;' textLength='9.79px' lengthAdjust='spacingAndGlyphs'>28</text>
<text x='649.12' y='323.71' style='font-size: 8.80px; font-family: Arial;' textLength='9.79px' lengthAdjust='spacingAndGlyphs'>34</text>
<text x='687.15' y='323.71' style='font-size: 8.80px; font-family: Arial;' textLength='12.24px' lengthAdjust='spacingAndGlyphs'>0.5</text>
<text x='727.63' y='323.71' style='font-size: 8.80px; font-family: Arial;' textLength='9.79px' lengthAdjust='spacingAndGlyphs'>14</text>
</g>
</svg>
