<?xml version='1.0' encoding='UTF-8' ?>
<svg xmlns='http://www.w3.org/2000/svg' xmlns:xlink='http://www.w3.org/1999/xlink' class='svglite' width='792.00pt' height='446.40pt' viewBox='0 0 792.00 446.40'>
<defs>
  <style type='text/css'><![CDATA[
    .svglite line, .svglite polyline, .svglite polygon, .svglite path, .svglite rect, .svglite circle {
      fill: none;
      stroke: #000000;
      stroke-linecap: round;
      stroke-linejoin: round;
      stroke-miterlimit: 10.00;
    }
  ]]></style>
</defs>
<rect width='100%' height='100%' style='stroke: none; fill: none;'/>
<defs>
  <clipPath id='cpMC4wMHw3OTIuMDB8MC4wMHw0NDYuNDA='>
    <rect x='0.00' y='0.00' width='792.00' height='446.40' />
  </clipPath>
</defs>
<g clip-path='url(#cpMC4wMHw3OTIuMDB8MC4wMHw0NDYuNDA=)'>
<rect x='0.00' y='0.00' width='792.00' height='446.40' style='stroke-width: 1.94; stroke: none;' />
</g>
<defs>
  <clipPath id='cpMTIxLjg0fDczNS4zMXw2Mi43MHwzNjcuNTI='>
    <rect x='121.84' y='62.70' width='613.47' height='304.83' />
  </clipPath>
</defs>
<g clip-path='url(#cpMTIxLjg0fDczNS4zMXw2Mi43MHwzNjcuNTI=)'>
<rect x='121.84' y='62.70' width='613.47' height='304.83' style='stroke-width: 1.94; stroke: none; fill: #FFFFFF;' />
<polyline points='121.84,330.57 735.31,330.57 ' style='stroke-width: 0.97; stroke: #EBEBEB; stroke-linecap: butt;' />
<polyline points='121.84,284.39 735.31,284.39 ' style='stroke-width: 0.97; stroke: #EBEBEB; stroke-linecap: butt;' />
<polyline points='121.84,238.20 735.31,238.20 ' style='stroke-width: 0.97; stroke: #EBEBEB; stroke-linecap: butt;' />
<polyline points='121.84,192.02 735.31,192.02 ' style='stroke-width: 0.97; stroke: #EBEBEB; stroke-linecap: butt;' />
<polyline points='121.84,145.83 735.31,145.83 ' style='stroke-width: 0.97; stroke: #EBEBEB; stroke-linecap: butt;' />
<polyline points='121.84,99.64 735.31,99.64 ' style='stroke-width: 0.97; stroke: #EBEBEB; stroke-linecap: butt;' />
<polyline points='196.20,367.52 196.20,62.70 ' style='stroke-width: 0.97; stroke: #EBEBEB; stroke-linecap: butt;' />
<polyline points='289.15,367.52 289.15,62.70 ' style='stroke-width: 0.97; stroke: #EBEBEB; stroke-linecap: butt;' />
<polyline points='382.10,367.52 382.10,62.70 ' style='stroke-width: 0.97; stroke: #EBEBEB; stroke-linecap: butt;' />
<polyline points='475.05,367.52 475.05,62.70 ' style='stroke-width: 0.97; stroke: #EBEBEB; stroke-linecap: butt;' />
<polyline points='568.00,367.52 568.00,62.70 ' style='stroke-width: 0.97; stroke: #EBEBEB; stroke-linecap: butt;' />
<polyline points='660.95,367.52 660.95,62.70 ' style='stroke-width: 0.97; stroke: #EBEBEB; stroke-linecap: butt;' />
<polyline points='121.84,353.67 735.31,353.67 ' style='stroke-width: 1.94; stroke: #EBEBEB; stroke-linecap: butt;' />
<polyline points='121.84,307.48 735.31,307.48 ' style='stroke-width: 1.94; stroke: #EBEBEB; stroke-linecap: butt;' />
<polyline points='121.84,261.30 735.31,261.30 ' style='stroke-width: 1.94; stroke: #EBEBEB; stroke-linecap: butt;' />
<polyline points='121.84,215.11 735.31,215.11 ' style='stroke-width: 1.94; stroke: #EBEBEB; stroke-linecap: butt;' />
<polyline points='121.84,168.92 735.31,168.92 ' style='stroke-width: 1.94; stroke: #EBEBEB; stroke-linecap: butt;' />
<polyline points='121.84,122.74 735.31,122.74 ' style='stroke-width: 1.94; stroke: #EBEBEB; stroke-linecap: butt;' />
<polyline points='121.84,76.55 735.31,76.55 ' style='stroke-width: 1.94; stroke: #EBEBEB; stroke-linecap: butt;' />
<polyline points='149.72,367.52 149.72,62.70 ' style='stroke-width: 1.94; stroke: #EBEBEB; stroke-linecap: butt;' />
<polyline points='242.67,367.52 242.67,62.70 ' style='stroke-width: 1.94; stroke: #EBEBEB; stroke-linecap: butt;' />
<polyline points='335.62,367.52 335.62,62.70 ' style='stroke-width: 1.94; stroke: #EBEBEB; stroke-linecap: butt;' />
<polyline points='428.57,367.52 428.57,62.70 ' style='stroke-width: 1.94; stroke: #EBEBEB; stroke-linecap: butt;' />
<polyline points='521.52,367.52 521.52,62.70 ' style='stroke-width: 1.94; stroke: #EBEBEB; stroke-linecap: butt;' />
<polyline points='614.47,367.52 614.47,62.70 ' style='stroke-width: 1.94; stroke: #EBEBEB; stroke-linecap: butt;' />
<polyline points='707.42,367.52 707.42,62.70 ' style='stroke-width: 1.94; stroke: #EBEBEB; stroke-linecap: butt;' />
<line x1='-491.63' y1='513.01' x2='1348.77' y2='55.77' style='stroke-width: 4.27; stroke: #0000FF; stroke-linecap: butt;' />
<rect x='121.84' y='62.70' width='613.47' height='304.83' style='stroke-width: 1.94; stroke: #333333;' />
</g>
<g clip-path='url(#cpMC4wMHw3OTIuMDB8MC4wMHw0NDYuNDA=)'>
<text x='112.87' y='359.83' text-anchor='end' style='font-size: 16.00px; fill: #4D4D4D; font-family: Nobile;' textLength='10.59px' lengthAdjust='spacingAndGlyphs'>0</text>
<text x='112.87' y='313.65' text-anchor='end' style='font-size: 16.00px; fill: #4D4D4D; font-family: Nobile;' textLength='26.99px' lengthAdjust='spacingAndGlyphs'>100</text>
<text x='112.87' y='267.46' text-anchor='end' style='font-size: 16.00px; fill: #4D4D4D; font-family: Nobile;' textLength='29.81px' lengthAdjust='spacingAndGlyphs'>200</text>
<text x='112.87' y='221.28' text-anchor='end' style='font-size: 16.00px; fill: #4D4D4D; font-family: Nobile;' textLength='30.06px' lengthAdjust='spacingAndGlyphs'>300</text>
<text x='112.87' y='175.09' text-anchor='end' style='font-size: 16.00px; fill: #4D4D4D; font-family: Nobile;' textLength='30.55px' lengthAdjust='spacingAndGlyphs'>400</text>
<text x='112.87' y='128.90' text-anchor='end' style='font-size: 16.00px; fill: #4D4D4D; font-family: Nobile;' textLength='29.79px' lengthAdjust='spacingAndGlyphs'>500</text>
<text x='112.87' y='82.72' text-anchor='end' style='font-size: 16.00px; fill: #4D4D4D; font-family: Nobile;' textLength='30.87px' lengthAdjust='spacingAndGlyphs'>600</text>
<polyline points='116.86,353.67 121.84,353.67 ' style='stroke-width: 1.94; stroke: #333333; stroke-linecap: butt;' />
<polyline points='116.86,307.48 121.84,307.48 ' style='stroke-width: 1.94; stroke: #333333; stroke-linecap: butt;' />
<polyline points='116.86,261.30 121.84,261.30 ' style='stroke-width: 1.94; stroke: #333333; stroke-linecap: butt;' />
<polyline points='116.86,215.11 121.84,215.11 ' style='stroke-width: 1.94; stroke: #333333; stroke-linecap: butt;' />
<polyline points='116.86,168.92 121.84,168.92 ' style='stroke-width: 1.94; stroke: #333333; stroke-linecap: butt;' />
<polyline points='116.86,122.74 121.84,122.74 ' style='stroke-width: 1.94; stroke: #333333; stroke-linecap: butt;' />
<polyline points='116.86,76.55 121.84,76.55 ' style='stroke-width: 1.94; stroke: #333333; stroke-linecap: butt;' />
<polyline points='149.72,372.50 149.72,367.52 ' style='stroke-width: 1.94; stroke: #333333; stroke-linecap: butt;' />
<polyline points='242.67,372.50 242.67,367.52 ' style='stroke-width: 1.94; stroke: #333333; stroke-linecap: butt;' />
<polyline points='335.62,372.50 335.62,367.52 ' style='stroke-width: 1.94; stroke: #333333; stroke-linecap: butt;' />
<polyline points='428.57,372.50 428.57,367.52 ' style='stroke-width: 1.94; stroke: #333333; stroke-linecap: butt;' />
<polyline points='521.52,372.50 521.52,367.52 ' style='stroke-width: 1.94; stroke: #333333; stroke-linecap: butt;' />
<polyline points='614.47,372.50 614.47,367.52 ' style='stroke-width: 1.94; stroke: #333333; stroke-linecap: butt;' />
<polyline points='707.42,372.50 707.42,367.52 ' style='stroke-width: 1.94; stroke: #333333; stroke-linecap: butt;' />
<text x='149.72' y='388.82' text-anchor='middle' style='font-size: 16.00px; fill: #4D4D4D; font-family: Nobile;' textLength='10.59px' lengthAdjust='spacingAndGlyphs'>0</text>
<text x='242.67' y='388.82' text-anchor='middle' style='font-size: 16.00px; fill: #4D4D4D; font-family: Nobile;' textLength='19.20px' lengthAdjust='spacingAndGlyphs'>50</text>
<text x='335.62' y='388.82' text-anchor='middle' style='font-size: 16.00px; fill: #4D4D4D; font-family: Nobile;' textLength='26.99px' lengthAdjust='spacingAndGlyphs'>100</text>
<text x='428.57' y='388.82' text-anchor='middle' style='font-size: 16.00px; fill: #4D4D4D; font-family: Nobile;' textLength='25.01px' lengthAdjust='spacingAndGlyphs'>150</text>
<text x='521.52' y='388.82' text-anchor='middle' style='font-size: 16.00px; fill: #4D4D4D; font-family: Nobile;' textLength='29.81px' lengthAdjust='spacingAndGlyphs'>200</text>
<text x='614.47' y='388.82' text-anchor='middle' style='font-size: 16.00px; fill: #4D4D4D; font-family: Nobile;' textLength='27.83px' lengthAdjust='spacingAndGlyphs'>250</text>
<text x='707.42' y='388.82' text-anchor='middle' style='font-size: 16.00px; fill: #4D4D4D; font-family: Nobile;' textLength='30.06px' lengthAdjust='spacingAndGlyphs'>300</text>
<text x='428.57' y='413.15' text-anchor='middle' style='font-size: 20.00px; font-family: Nobile;' textLength='247.80px' lengthAdjust='spacingAndGlyphs'>How strong are your pills?</text>
<text transform='translate(72.12,215.11) rotate(-90)' text-anchor='middle' style='font-size: 20.00px; font-family: Nobile;' textLength='312.42px' lengthAdjust='spacingAndGlyphs'>What pill dose would you prefer?</text>
<text x='121.84' y='46.85' style='font-size: 24.00px; font-family: Nobile;' textLength='404.14px' lengthAdjust='spacingAndGlyphs'>Own pill dose versus preferred dose</text>
</g>
</svg>
